// Jest Snapshot v1, https://goo.gl/fbAQLP

exports[`LedgerSummaryMonthly tests should be there 1`] = `
<div
  className="sc-AxjAm sc-AxheI idHbiO"
  direction="column"
  width="100%"
>
  <h3
    className="sc-fzozJi kRZzCe"
  >
    July
  </h3>
  <div
    className="sc-AxhUy OCUyJ"
    height={0}
  >
    <div
      className="sc-AxgMl kefJAm"
    >
      <div
        className="sc-AxjAm sc-AxirZ ftMtTc"
        direction="row"
      >
        <div
          className="sc-AxjAm sc-AxiKw gWOmtr"
          direction="column"
        >
          <button
            className="sc-AxhCb sc-AxmLO uXygf mx-auto"
            onClick={[Function]}
          >
            +
          </button>
        </div>
        <div
          className="sc-AxjAm sc-AxiKw bWXArY"
          direction="column"
        >
          <div
            className="sc-AxjAm sc-AxirZ ftMtTc"
            direction="row"
          >
            <div
              className="sc-AxjAm sc-AxiKw eluMRL"
              direction="column"
            >
              <strong>
                CashFlow
              </strong>
            </div>
            <div
              className="sc-AxjAm sc-AxiKw eluMRL"
              direction="column"
            >
              <strong>
                Avg CashFlow
              </strong>
            </div>
            <div
              className="sc-AxjAm sc-AxiKw eluMRL"
              direction="column"
            >
              <strong>
                Purchases
              </strong>
            </div>
            <div
              className="sc-AxjAm sc-AxiKw eluMRL"
              direction="column"
            >
              <strong>
                Equity
              </strong>
            </div>
            <div
              className="sc-AxjAm sc-AxiKw eluMRL"
              direction="column"
            >
              <strong>
                Balance
              </strong>
            </div>
          </div>
          <div
            className="sc-AxjAm sc-AxirZ ftMtTc"
            direction="row"
          >
            <div
              className="sc-AxjAm sc-AxiKw eluMRL text-right"
              direction="column"
            >
              $20.00
            </div>
            <div
              className="sc-AxjAm sc-AxiKw eluMRL text-right"
              direction="column"
            >
              $200.00
            </div>
            <div
              className="sc-AxjAm sc-AxiKw eluMRL text-right"
              direction="column"
            >
              $0.00
            </div>
            <div
              className="sc-AxjAm sc-AxiKw eluMRL text-right"
              direction="column"
            >
              $50.00
            </div>
            <div
              className="sc-AxjAm sc-AxiKw eluMRL text-right"
              direction="column"
            >
              $2,000.00
            </div>
          </div>
        </div>
      </div>
    </div>
  </div>
</div>
`;
