{
	"rentals": [
		{
			"date": "2020-05-01T05:00:00.000Z",
			"rental": {
				"_id": "PA377ca6ae",
				"_rentalOptions": {
					"purchasePrice": 2019020,
					"sellPrice": 2846818.1999999997,
					"purchaseDate": null,
					"minSaleYears": 6,
					"refinancePercent": 40,
					"minRefinanceYears": 3
				},
				"refinanceDate": null,
				"_investmentAmount": 0,
				"_options": {
					"purchaseDate": null,
					"saleDate": null,
					"minSaleYears": 6,
					"purchasePrice": 2019020,
					"cashOnCashPercent": 11,
					"sellPrice": 2846818.1999999997,
					"refinancePercent": 40,
					"minRefinanceYears": 3,
					"investmentAmounts": [
						50000,
						100000,
						150000,
						200000,
						250000,
						500000
					]
				}
			}
		},
		{
			"date": "2020-05-01T05:00:00.000Z",
			"rental": {
				"_id": "PA1d0be8fa",
				"_rentalOptions": {
					"purchasePrice": 5482775,
					"sellPrice": 7895196,
					"purchaseDate": null,
					"minSaleYears": 6,
					"refinancePercent": 40,
					"minRefinanceYears": 3
				},
				"refinanceDate": null,
				"_investmentAmount": 0,
				"_options": {
					"purchaseDate": null,
					"saleDate": null,
					"minSaleYears": 6,
					"purchasePrice": 5482775,
					"cashOnCashPercent": 10,
					"sellPrice": 7895196,
					"refinancePercent": 40,
					"minRefinanceYears": 3,
					"investmentAmounts": [
						50000,
						100000,
						150000,
						200000,
						250000,
						500000
					]
				}
			}
		},
		{
			"date": "2020-05-01T05:00:00.000Z",
			"rental": {
				"_id": "PA1fdc36b0",
				"_rentalOptions": {
					"purchasePrice": 3462394,
					"sellPrice": 6336181.0200000005,
					"purchaseDate": "2022-08-01T05:00:00.000Z",
					"minSaleYears": 7,
					"refinancePercent": 40,
					"minRefinanceYears": 3
				},
				"refinanceDate": null,
				"_investmentAmount": 50000,
				"_options": {
					"purchaseDate": null,
					"saleDate": null,
					"minSaleYears": 7,
					"purchasePrice": 3462394,
					"cashOnCashPercent": 8,
					"sellPrice": 6336181.0200000005,
					"refinancePercent": 40,
					"minRefinanceYears": 3,
					"investmentAmounts": [
						50000,
						100000,
						150000,
						200000,
						250000,
						500000
					]
				}
			}
		},
		{
			"date": "2020-05-01T05:00:00.000Z",
			"rental": {
				"_id": "PA3c6dc96d",
				"_rentalOptions": {
					"purchasePrice": 2691725,
					"sellPrice": 4468263.5,
					"purchaseDate": "2023-06-01T05:00:00.000Z",
					"minSaleYears": 5,
					"refinancePercent": 40,
					"minRefinanceYears": 3
				},
				"refinanceDate": null,
				"_investmentAmount": 50000,
				"_options": {
					"purchaseDate": null,
					"saleDate": null,
					"minSaleYears": 5,
					"purchasePrice": 2691725,
					"cashOnCashPercent": 8,
					"sellPrice": 4468263.5,
					"refinancePercent": 40,
					"minRefinanceYears": 3,
					"investmentAmounts": [
						50000,
						100000,
						150000,
						200000,
						250000,
						500000
					]
				}
			}
		},
		{
			"date": "2020-05-01T05:00:00.000Z",
			"rental": {
				"_id": "PA26cb6cc2",
				"_rentalOptions": {
					"purchasePrice": 4624579,
					"sellPrice": 7121851.66,
					"purchaseDate": "2020-05-01T05:00:00.000Z",
					"minSaleYears": 5,
					"refinancePercent": 40,
					"minRefinanceYears": 3
				},
				"refinanceDate": null,
				"_investmentAmount": 50000,
				"_options": {
					"purchaseDate": null,
					"saleDate": null,
					"minSaleYears": 5,
					"purchasePrice": 4624579,
					"cashOnCashPercent": 13,
					"sellPrice": 7121851.66,
					"refinancePercent": 40,
					"minRefinanceYears": 3,
					"investmentAmounts": [
						50000,
						100000,
						150000,
						200000,
						250000,
						500000
					]
				}
			}
		},
		{
			"date": "2020-05-01T05:00:00.000Z",
			"rental": {
				"_id": "PA14a2c28a",
				"_rentalOptions": {
					"purchasePrice": 4646405,
					"sellPrice": 8363529,
					"purchaseDate": "2021-07-01T05:00:00.000Z",
					"minSaleYears": 7,
					"refinancePercent": 40,
					"minRefinanceYears": 3
				},
				"refinanceDate": null,
				"_investmentAmount": 50000,
				"_options": {
					"purchaseDate": null,
					"saleDate": null,
					"minSaleYears": 7,
					"purchasePrice": 4646405,
					"cashOnCashPercent": 13,
					"sellPrice": 8363529,
					"refinancePercent": 40,
					"minRefinanceYears": 3,
					"investmentAmounts": [
						50000,
						100000,
						150000,
						200000,
						250000,
						500000
					]
				}
			}
		}
	],
	"user": {
		"_rentals": [
			{
				"_id": "PA26cb6cc2",
				"_rentalOptions": {
					"purchasePrice": 4624579,
					"sellPrice": 7121851.66,
					"purchaseDate": "2020-05-01T05:00:00.000Z",
					"minSaleYears": 5,
					"refinancePercent": 40,
					"minRefinanceYears": 3
				},
				"refinanceDate": "2023-06-01T05:00:00.000Z",
				"_investmentAmount": 50000,
				"_options": {
					"purchaseDate": null,
					"saleDate": null,
					"minSaleYears": 5,
					"purchasePrice": 4624579,
					"cashOnCashPercent": 13,
					"sellPrice": 7121851.66,
					"refinancePercent": 40,
					"minRefinanceYears": 3,
					"investmentAmounts": [
						50000,
						100000,
						150000,
						200000,
						250000,
						500000
					]
				},
				"_saleDate": "2025-05-01T05:00:00.000Z"
			},
			{
				"_id": "PA14a2c28a",
				"_rentalOptions": {
					"purchasePrice": 4646405,
					"sellPrice": 8363529,
					"purchaseDate": "2021-07-01T05:00:00.000Z",
					"minSaleYears": 7,
					"refinancePercent": 40,
					"minRefinanceYears": 3
				},
				"refinanceDate": "2024-08-01T05:00:00.000Z",
				"_investmentAmount": 50000,
				"_options": {
					"purchaseDate": null,
					"saleDate": null,
					"minSaleYears": 7,
					"purchasePrice": 4646405,
					"cashOnCashPercent": 13,
					"sellPrice": 8363529,
					"refinancePercent": 40,
					"minRefinanceYears": 3,
					"investmentAmounts": [
						50000,
						100000,
						150000,
						200000,
						250000,
						500000
					]
				},
				"_saleDate": "2028-07-01T05:00:00.000Z"
			},
			{
				"_id": "PA1fdc36b0",
				"_rentalOptions": {
					"purchasePrice": 3462394,
					"sellPrice": 6336181.0200000005,
					"purchaseDate": "2022-08-01T05:00:00.000Z",
					"minSaleYears": 7,
					"refinancePercent": 40,
					"minRefinanceYears": 3
				},
				"refinanceDate": "2025-09-01T05:00:00.000Z",
				"_investmentAmount": 50000,
				"_options": {
					"purchaseDate": null,
					"saleDate": null,
					"minSaleYears": 7,
					"purchasePrice": 3462394,
					"cashOnCashPercent": 8,
					"sellPrice": 6336181.0200000005,
					"refinancePercent": 40,
					"minRefinanceYears": 3,
					"investmentAmounts": [
						50000,
						100000,
						150000,
						200000,
						250000,
						500000
					]
				},
				"_saleDate": "2029-08-01T05:00:00.000Z"
			},
			{
				"_id": "PA3c6dc96d",
				"_rentalOptions": {
					"purchasePrice": 2691725,
					"sellPrice": 4468263.5,
					"purchaseDate": "2023-06-01T05:00:00.000Z",
					"minSaleYears": 5,
					"refinancePercent": 40,
					"minRefinanceYears": 3
				},
				"refinanceDate": "2026-07-01T05:00:00.000Z",
				"_investmentAmount": 50000,
				"_options": {
					"purchaseDate": null,
					"saleDate": null,
					"minSaleYears": 5,
					"purchasePrice": 2691725,
					"cashOnCashPercent": 8,
					"sellPrice": 4468263.5,
					"refinancePercent": 40,
					"minRefinanceYears": 3,
					"investmentAmounts": [
						50000,
						100000,
						150000,
						200000,
						250000,
						500000
					]
				},
				"_saleDate": "2028-06-01T05:00:00.000Z"
			}
		],
		"_options": {
			"monthlyIncomeAmountGoal": 8000,
			"monthlySavedAmount": 3000,
			"minCashOnCashPercent": 8,
			"minEquityCapturePercent": 150,
			"minInvestAmount": 50000,
			"maxInvestAmount": 500000
		},
		"_ledger": [
			{
				"item": {
					"amount": 150000,
					"type": "Other",
					"created": "2020-05-01T05:00:00.000Z",
					"note": "savings"
				},
				"balance": 150000
			},
			{
				"item": {
					"amount": 3000,
					"type": "Income",
					"created": "2020-05-01T05:00:00.000Z",
					"note": "saved for month"
				},
				"balance": 153000
			},
			{
				"item": {
					"amount": -150000,
					"type": "Purchase",
					"created": "2020-05-01T05:00:00.000Z",
					"note": "purchase",
					"referenceId": "PA26cb6cc2"
				},
				"balance": 3000
			},
			{
				"item": {
					"amount": 3000,
					"type": "Income",
					"created": "2020-06-01T05:00:00.000Z",
					"note": "saved for month"
				},
				"balance": 6000
			},
			{
				"item": {
					"amount": 270.83,
					"type": "CashFlow",
					"created": "2020-06-01T05:00:00.000Z",
					"note": "cashflow",
					"referenceId": "PA26cb6cc2"
				},
				"balance": 6270.83
			},
			{
				"item": {
					"amount": 3000,
					"type": "Income",
					"created": "2020-07-01T05:00:00.000Z",
					"note": "saved for month"
				},
				"balance": 9270.83
			},
			{
				"item": {
					"amount": 270.83,
					"type": "CashFlow",
					"created": "2020-07-01T05:00:00.000Z",
					"note": "cashflow",
					"referenceId": "PA26cb6cc2"
				},
				"balance": 9541.66
			},
			{
				"item": {
					"amount": 3000,
					"type": "Income",
					"created": "2020-08-01T05:00:00.000Z",
					"note": "saved for month"
				},
				"balance": 12541.66
			},
			{
				"item": {
					"amount": 270.83,
					"type": "CashFlow",
					"created": "2020-08-01T05:00:00.000Z",
					"note": "cashflow",
					"referenceId": "PA26cb6cc2"
				},
				"balance": 12812.49
			},
			{
				"item": {
					"amount": 3000,
					"type": "Income",
					"created": "2020-09-01T05:00:00.000Z",
					"note": "saved for month"
				},
				"balance": 15812.49
			},
			{
				"item": {
					"amount": 270.83,
					"type": "CashFlow",
					"created": "2020-09-01T05:00:00.000Z",
					"note": "cashflow",
					"referenceId": "PA26cb6cc2"
				},
				"balance": 16083.32
			},
			{
				"item": {
					"amount": 3000,
					"type": "Income",
					"created": "2020-10-01T05:00:00.000Z",
					"note": "saved for month"
				},
				"balance": 19083.32
			},
			{
				"item": {
					"amount": 270.83,
					"type": "CashFlow",
					"created": "2020-10-01T05:00:00.000Z",
					"note": "cashflow",
					"referenceId": "PA26cb6cc2"
				},
				"balance": 19354.15
			},
			{
				"item": {
					"amount": 3000,
					"type": "Income",
					"created": "2020-11-01T05:00:00.000Z",
					"note": "saved for month"
				},
				"balance": 22354.15
			},
			{
				"item": {
					"amount": 541.67,
					"type": "CashFlow",
					"created": "2020-11-01T05:00:00.000Z",
					"note": "cashflow",
					"referenceId": "PA26cb6cc2"
				},
				"balance": 22895.82
			},
			{
				"item": {
					"amount": 3000,
					"type": "Income",
					"created": "2020-12-01T06:00:00.000Z",
					"note": "saved for month"
				},
				"balance": 25895.82
			},
			{
				"item": {
					"amount": 541.67,
					"type": "CashFlow",
					"created": "2020-12-01T06:00:00.000Z",
					"note": "cashflow",
					"referenceId": "PA26cb6cc2"
				},
				"balance": 26437.489999999998
			},
			{
				"item": {
					"amount": 3000,
					"type": "Income",
					"created": "2021-01-01T06:00:00.000Z",
					"note": "saved for month"
				},
				"balance": 29437.489999999998
			},
			{
				"item": {
					"amount": 541.67,
					"type": "CashFlow",
					"created": "2021-01-01T06:00:00.000Z",
					"note": "cashflow",
					"referenceId": "PA26cb6cc2"
				},
				"balance": 29979.159999999996
			},
			{
				"item": {
					"amount": 3000,
					"type": "Income",
					"created": "2021-02-01T06:00:00.000Z",
					"note": "saved for month"
				},
				"balance": 32979.159999999996
			},
			{
				"item": {
					"amount": 541.67,
					"type": "CashFlow",
					"created": "2021-02-01T06:00:00.000Z",
					"note": "cashflow",
					"referenceId": "PA26cb6cc2"
				},
				"balance": 33520.829999999994
			},
			{
				"item": {
					"amount": 3000,
					"type": "Income",
					"created": "2021-03-01T06:00:00.000Z",
					"note": "saved for month"
				},
				"balance": 36520.829999999994
			},
			{
				"item": {
					"amount": 541.67,
					"type": "CashFlow",
					"created": "2021-03-01T06:00:00.000Z",
					"note": "cashflow",
					"referenceId": "PA26cb6cc2"
				},
				"balance": 37062.49999999999
			},
			{
				"item": {
					"amount": 3000,
					"type": "Income",
					"created": "2021-04-01T05:00:00.000Z",
					"note": "saved for month"
				},
				"balance": 40062.49999999999
			},
			{
				"item": {
					"amount": 541.67,
					"type": "CashFlow",
					"created": "2021-04-01T05:00:00.000Z",
					"note": "cashflow",
					"referenceId": "PA26cb6cc2"
				},
				"balance": 40604.16999999999
			},
			{
				"item": {
					"amount": 3000,
					"type": "Income",
					"created": "2021-05-01T05:00:00.000Z",
					"note": "saved for month"
				},
				"balance": 43604.16999999999
			},
			{
				"item": {
					"amount": 541.67,
					"type": "CashFlow",
					"created": "2021-05-01T05:00:00.000Z",
					"note": "cashflow",
					"referenceId": "PA26cb6cc2"
				},
				"balance": 44145.83999999999
			},
			{
				"item": {
					"amount": 3000,
					"type": "Income",
					"created": "2021-06-01T05:00:00.000Z",
					"note": "saved for month"
				},
				"balance": 47145.83999999999
			},
			{
				"item": {
					"amount": 541.67,
					"type": "CashFlow",
					"created": "2021-06-01T05:00:00.000Z",
					"note": "cashflow",
					"referenceId": "PA26cb6cc2"
				},
				"balance": 47687.50999999999
			},
			{
				"item": {
					"amount": 3000,
					"type": "Income",
					"created": "2021-07-01T05:00:00.000Z",
					"note": "saved for month"
				},
				"balance": 50687.50999999999
			},
			{
				"item": {
					"amount": 541.67,
					"type": "CashFlow",
					"created": "2021-07-01T05:00:00.000Z",
					"note": "cashflow",
					"referenceId": "PA26cb6cc2"
				},
				"balance": 51229.179999999986
			},
			{
				"item": {
					"amount": -50000,
					"type": "Purchase",
					"created": "2021-07-01T05:00:00.000Z",
					"note": "purchase",
					"referenceId": "PA14a2c28a"
				},
				"balance": 1229.1799999999857
			},
			{
				"item": {
					"amount": 3000,
					"type": "Income",
					"created": "2021-08-01T05:00:00.000Z",
					"note": "saved for month"
				},
				"balance": 4229.179999999986
			},
			{
				"item": {
					"amount": 541.67,
					"type": "CashFlow",
					"created": "2021-08-01T05:00:00.000Z",
					"note": "cashflow",
					"referenceId": "PA26cb6cc2"
				},
				"balance": 4770.849999999986
			},
			{
				"item": {
					"amount": 270.83,
					"type": "CashFlow",
					"created": "2021-08-01T05:00:00.000Z",
					"note": "cashflow",
					"referenceId": "PA14a2c28a"
				},
				"balance": 5041.679999999986
			},
			{
				"item": {
					"amount": 3000,
					"type": "Income",
					"created": "2021-09-01T05:00:00.000Z",
					"note": "saved for month"
				},
				"balance": 8041.679999999986
			},
			{
				"item": {
					"amount": 541.67,
					"type": "CashFlow",
					"created": "2021-09-01T05:00:00.000Z",
					"note": "cashflow",
					"referenceId": "PA26cb6cc2"
				},
				"balance": 8583.349999999986
			},
			{
				"item": {
					"amount": 270.83,
					"type": "CashFlow",
					"created": "2021-09-01T05:00:00.000Z",
					"note": "cashflow",
					"referenceId": "PA14a2c28a"
				},
				"balance": 8854.179999999986
			},
			{
				"item": {
					"amount": 3000,
					"type": "Income",
					"created": "2021-10-01T05:00:00.000Z",
					"note": "saved for month"
				},
				"balance": 11854.179999999986
			},
			{
				"item": {
					"amount": 541.67,
					"type": "CashFlow",
					"created": "2021-10-01T05:00:00.000Z",
					"note": "cashflow",
					"referenceId": "PA26cb6cc2"
				},
				"balance": 12395.849999999986
			},
			{
				"item": {
					"amount": 270.83,
					"type": "CashFlow",
					"created": "2021-10-01T05:00:00.000Z",
					"note": "cashflow",
					"referenceId": "PA14a2c28a"
				},
				"balance": 12666.679999999986
			},
			{
				"item": {
					"amount": 3000,
					"type": "Income",
					"created": "2021-11-01T05:00:00.000Z",
					"note": "saved for month"
				},
				"balance": 15666.679999999986
			},
			{
				"item": {
					"amount": 541.67,
					"type": "CashFlow",
					"created": "2021-11-01T05:00:00.000Z",
					"note": "cashflow",
					"referenceId": "PA26cb6cc2"
				},
				"balance": 16208.349999999986
			},
			{
				"item": {
					"amount": 270.83,
					"type": "CashFlow",
					"created": "2021-11-01T05:00:00.000Z",
					"note": "cashflow",
					"referenceId": "PA14a2c28a"
				},
				"balance": 16479.179999999986
			},
			{
				"item": {
					"amount": 3000,
					"type": "Income",
					"created": "2021-12-01T06:00:00.000Z",
					"note": "saved for month"
				},
				"balance": 19479.179999999986
			},
			{
				"item": {
					"amount": 541.67,
					"type": "CashFlow",
					"created": "2021-12-01T06:00:00.000Z",
					"note": "cashflow",
					"referenceId": "PA26cb6cc2"
				},
				"balance": 20020.849999999984
			},
			{
				"item": {
					"amount": 270.83,
					"type": "CashFlow",
					"created": "2021-12-01T06:00:00.000Z",
					"note": "cashflow",
					"referenceId": "PA14a2c28a"
				},
				"balance": 20291.679999999986
			},
			{
				"item": {
					"amount": 3000,
					"type": "Income",
					"created": "2022-01-01T06:00:00.000Z",
					"note": "saved for month"
				},
				"balance": 23291.679999999986
			},
			{
				"item": {
					"amount": 541.67,
					"type": "CashFlow",
					"created": "2022-01-01T06:00:00.000Z",
					"note": "cashflow",
					"referenceId": "PA26cb6cc2"
				},
				"balance": 23833.349999999984
			},
			{
				"item": {
					"amount": 541.67,
					"type": "CashFlow",
					"created": "2022-01-01T06:00:00.000Z",
					"note": "cashflow",
					"referenceId": "PA14a2c28a"
				},
				"balance": 24375.019999999982
			},
			{
				"item": {
					"amount": 3000,
					"type": "Income",
					"created": "2022-02-01T06:00:00.000Z",
					"note": "saved for month"
				},
				"balance": 27375.019999999982
			},
			{
				"item": {
					"amount": 541.67,
					"type": "CashFlow",
					"created": "2022-02-01T06:00:00.000Z",
					"note": "cashflow",
					"referenceId": "PA26cb6cc2"
				},
				"balance": 27916.68999999998
			},
			{
				"item": {
					"amount": 541.67,
					"type": "CashFlow",
					"created": "2022-02-01T06:00:00.000Z",
					"note": "cashflow",
					"referenceId": "PA14a2c28a"
				},
				"balance": 28458.35999999998
			},
			{
				"item": {
					"amount": 3000,
					"type": "Income",
					"created": "2022-03-01T06:00:00.000Z",
					"note": "saved for month"
				},
				"balance": 31458.35999999998
			},
			{
				"item": {
					"amount": 541.67,
					"type": "CashFlow",
					"created": "2022-03-01T06:00:00.000Z",
					"note": "cashflow",
					"referenceId": "PA26cb6cc2"
				},
				"balance": 32000.029999999977
			},
			{
				"item": {
					"amount": 541.67,
					"type": "CashFlow",
					"created": "2022-03-01T06:00:00.000Z",
					"note": "cashflow",
					"referenceId": "PA14a2c28a"
				},
				"balance": 32541.699999999975
			},
			{
				"item": {
					"amount": 3000,
					"type": "Income",
					"created": "2022-04-01T05:00:00.000Z",
					"note": "saved for month"
				},
				"balance": 35541.699999999975
			},
			{
				"item": {
					"amount": 541.67,
					"type": "CashFlow",
					"created": "2022-04-01T05:00:00.000Z",
					"note": "cashflow",
					"referenceId": "PA26cb6cc2"
				},
				"balance": 36083.36999999997
			},
			{
				"item": {
					"amount": 541.67,
					"type": "CashFlow",
					"created": "2022-04-01T05:00:00.000Z",
					"note": "cashflow",
					"referenceId": "PA14a2c28a"
				},
				"balance": 36625.03999999997
			},
			{
				"item": {
					"amount": 3000,
					"type": "Income",
					"created": "2022-05-01T05:00:00.000Z",
					"note": "saved for month"
				},
				"balance": 39625.03999999997
			},
			{
				"item": {
					"amount": 541.67,
					"type": "CashFlow",
					"created": "2022-05-01T05:00:00.000Z",
					"note": "cashflow",
					"referenceId": "PA26cb6cc2"
				},
				"balance": 40166.70999999997
			},
			{
				"item": {
					"amount": 541.67,
					"type": "CashFlow",
					"created": "2022-05-01T05:00:00.000Z",
					"note": "cashflow",
					"referenceId": "PA14a2c28a"
				},
				"balance": 40708.37999999997
			},
			{
				"item": {
					"amount": 3000,
					"type": "Income",
					"created": "2022-06-01T05:00:00.000Z",
					"note": "saved for month"
				},
				"balance": 43708.37999999997
			},
			{
				"item": {
					"amount": 541.67,
					"type": "CashFlow",
					"created": "2022-06-01T05:00:00.000Z",
					"note": "cashflow",
					"referenceId": "PA26cb6cc2"
				},
				"balance": 44250.04999999997
			},
			{
				"item": {
					"amount": 541.67,
					"type": "CashFlow",
					"created": "2022-06-01T05:00:00.000Z",
					"note": "cashflow",
					"referenceId": "PA14a2c28a"
				},
				"balance": 44791.719999999965
			},
			{
				"item": {
					"amount": 3000,
					"type": "Income",
					"created": "2022-07-01T05:00:00.000Z",
					"note": "saved for month"
				},
				"balance": 47791.719999999965
			},
			{
				"item": {
					"amount": 541.67,
					"type": "CashFlow",
					"created": "2022-07-01T05:00:00.000Z",
					"note": "cashflow",
					"referenceId": "PA26cb6cc2"
				},
				"balance": 48333.38999999996
			},
			{
				"item": {
					"amount": 541.67,
					"type": "CashFlow",
					"created": "2022-07-01T05:00:00.000Z",
					"note": "cashflow",
					"referenceId": "PA14a2c28a"
				},
				"balance": 48875.05999999996
			},
			{
				"item": {
					"amount": 3000,
					"type": "Income",
					"created": "2022-08-01T05:00:00.000Z",
					"note": "saved for month"
				},
				"balance": 51875.05999999996
			},
			{
				"item": {
					"amount": 541.67,
					"type": "CashFlow",
					"created": "2022-08-01T05:00:00.000Z",
					"note": "cashflow",
					"referenceId": "PA26cb6cc2"
				},
				"balance": 52416.72999999996
			},
			{
				"item": {
					"amount": 541.67,
					"type": "CashFlow",
					"created": "2022-08-01T05:00:00.000Z",
					"note": "cashflow",
					"referenceId": "PA14a2c28a"
				},
				"balance": 52958.39999999996
			},
			{
				"item": {
					"amount": -50000,
					"type": "Purchase",
					"created": "2022-08-01T05:00:00.000Z",
					"note": "purchase",
					"referenceId": "PA1fdc36b0"
				},
				"balance": 2958.399999999958
			},
			{
				"item": {
					"amount": 3000,
					"type": "Income",
					"created": "2022-09-01T05:00:00.000Z",
					"note": "saved for month"
				},
				"balance": 5958.399999999958
			},
			{
				"item": {
					"amount": 541.67,
					"type": "CashFlow",
					"created": "2022-09-01T05:00:00.000Z",
					"note": "cashflow",
					"referenceId": "PA26cb6cc2"
				},
				"balance": 6500.069999999958
			},
			{
				"item": {
					"amount": 541.67,
					"type": "CashFlow",
					"created": "2022-09-01T05:00:00.000Z",
					"note": "cashflow",
					"referenceId": "PA14a2c28a"
				},
				"balance": 7041.739999999958
			},
			{
				"item": {
					"amount": 166.67,
					"type": "CashFlow",
					"created": "2022-09-01T05:00:00.000Z",
					"note": "cashflow",
					"referenceId": "PA1fdc36b0"
				},
				"balance": 7208.409999999958
			},
			{
				"item": {
					"amount": 3000,
					"type": "Income",
					"created": "2022-10-01T05:00:00.000Z",
					"note": "saved for month"
				},
				"balance": 10208.409999999958
			},
			{
				"item": {
					"amount": 541.67,
					"type": "CashFlow",
					"created": "2022-10-01T05:00:00.000Z",
					"note": "cashflow",
					"referenceId": "PA26cb6cc2"
				},
				"balance": 10750.079999999958
			},
			{
				"item": {
					"amount": 541.67,
					"type": "CashFlow",
					"created": "2022-10-01T05:00:00.000Z",
					"note": "cashflow",
					"referenceId": "PA14a2c28a"
				},
				"balance": 11291.749999999958
			},
			{
				"item": {
					"amount": 166.67,
					"type": "CashFlow",
					"created": "2022-10-01T05:00:00.000Z",
					"note": "cashflow",
					"referenceId": "PA1fdc36b0"
				},
				"balance": 11458.419999999958
			},
			{
				"item": {
					"amount": 3000,
					"type": "Income",
					"created": "2022-11-01T05:00:00.000Z",
					"note": "saved for month"
				},
				"balance": 14458.419999999958
			},
			{
				"item": {
					"amount": 541.67,
					"type": "CashFlow",
					"created": "2022-11-01T05:00:00.000Z",
					"note": "cashflow",
					"referenceId": "PA26cb6cc2"
				},
				"balance": 15000.089999999958
			},
			{
				"item": {
					"amount": 541.67,
					"type": "CashFlow",
					"created": "2022-11-01T05:00:00.000Z",
					"note": "cashflow",
					"referenceId": "PA14a2c28a"
				},
				"balance": 15541.759999999958
			},
			{
				"item": {
					"amount": 166.67,
					"type": "CashFlow",
					"created": "2022-11-01T05:00:00.000Z",
					"note": "cashflow",
					"referenceId": "PA1fdc36b0"
				},
				"balance": 15708.429999999958
			},
			{
				"item": {
					"amount": 3000,
					"type": "Income",
					"created": "2022-12-01T06:00:00.000Z",
					"note": "saved for month"
				},
				"balance": 18708.429999999957
			},
			{
				"item": {
					"amount": 541.67,
					"type": "CashFlow",
					"created": "2022-12-01T06:00:00.000Z",
					"note": "cashflow",
					"referenceId": "PA26cb6cc2"
				},
				"balance": 19250.099999999955
			},
			{
				"item": {
					"amount": 541.67,
					"type": "CashFlow",
					"created": "2022-12-01T06:00:00.000Z",
					"note": "cashflow",
					"referenceId": "PA14a2c28a"
				},
				"balance": 19791.769999999953
			},
			{
				"item": {
					"amount": 166.67,
					"type": "CashFlow",
					"created": "2022-12-01T06:00:00.000Z",
					"note": "cashflow",
					"referenceId": "PA1fdc36b0"
				},
				"balance": 19958.43999999995
			},
			{
				"item": {
					"amount": 3000,
					"type": "Income",
					"created": "2023-01-01T06:00:00.000Z",
					"note": "saved for month"
				},
				"balance": 22958.43999999995
			},
			{
				"item": {
					"amount": 541.67,
					"type": "CashFlow",
					"created": "2023-01-01T06:00:00.000Z",
					"note": "cashflow",
					"referenceId": "PA26cb6cc2"
				},
				"balance": 23500.10999999995
			},
			{
				"item": {
					"amount": 541.67,
					"type": "CashFlow",
					"created": "2023-01-01T06:00:00.000Z",
					"note": "cashflow",
					"referenceId": "PA14a2c28a"
				},
				"balance": 24041.779999999948
			},
			{
				"item": {
					"amount": 166.67,
					"type": "CashFlow",
					"created": "2023-01-01T06:00:00.000Z",
					"note": "cashflow",
					"referenceId": "PA1fdc36b0"
				},
				"balance": 24208.449999999946
			},
			{
				"item": {
					"amount": 3000,
					"type": "Income",
					"created": "2023-02-01T06:00:00.000Z",
					"note": "saved for month"
				},
				"balance": 27208.449999999946
			},
			{
				"item": {
					"amount": 541.67,
					"type": "CashFlow",
					"created": "2023-02-01T06:00:00.000Z",
					"note": "cashflow",
					"referenceId": "PA26cb6cc2"
				},
				"balance": 27750.119999999944
			},
			{
				"item": {
					"amount": 541.67,
					"type": "CashFlow",
					"created": "2023-02-01T06:00:00.000Z",
					"note": "cashflow",
					"referenceId": "PA14a2c28a"
				},
				"balance": 28291.789999999943
			},
			{
				"item": {
					"amount": 333.33,
					"type": "CashFlow",
					"created": "2023-02-01T06:00:00.000Z",
					"note": "cashflow",
					"referenceId": "PA1fdc36b0"
				},
				"balance": 28625.119999999944
			},
			{
				"item": {
					"amount": 3000,
					"type": "Income",
					"created": "2023-03-01T06:00:00.000Z",
					"note": "saved for month"
				},
				"balance": 31625.119999999944
			},
			{
				"item": {
					"amount": 541.67,
					"type": "CashFlow",
					"created": "2023-03-01T06:00:00.000Z",
					"note": "cashflow",
					"referenceId": "PA26cb6cc2"
				},
				"balance": 32166.789999999943
			},
			{
				"item": {
					"amount": 541.67,
					"type": "CashFlow",
					"created": "2023-03-01T06:00:00.000Z",
					"note": "cashflow",
					"referenceId": "PA14a2c28a"
				},
				"balance": 32708.45999999994
			},
			{
				"item": {
					"amount": 333.33,
					"type": "CashFlow",
					"created": "2023-03-01T06:00:00.000Z",
					"note": "cashflow",
					"referenceId": "PA1fdc36b0"
				},
				"balance": 33041.78999999994
			},
			{
				"item": {
					"amount": 3000,
					"type": "Income",
					"created": "2023-04-01T05:00:00.000Z",
					"note": "saved for month"
				},
				"balance": 36041.78999999994
			},
			{
				"item": {
					"amount": 541.67,
					"type": "CashFlow",
					"created": "2023-04-01T05:00:00.000Z",
					"note": "cashflow",
					"referenceId": "PA26cb6cc2"
				},
				"balance": 36583.45999999994
			},
			{
				"item": {
					"amount": 541.67,
					"type": "CashFlow",
					"created": "2023-04-01T05:00:00.000Z",
					"note": "cashflow",
					"referenceId": "PA14a2c28a"
				},
				"balance": 37125.12999999994
			},
			{
				"item": {
					"amount": 333.33,
					"type": "CashFlow",
					"created": "2023-04-01T05:00:00.000Z",
					"note": "cashflow",
					"referenceId": "PA1fdc36b0"
				},
				"balance": 37458.45999999994
			},
			{
				"item": {
					"amount": 3000,
					"type": "Income",
					"created": "2023-05-01T05:00:00.000Z",
					"note": "saved for month"
				},
				"balance": 40458.45999999994
			},
			{
				"item": {
					"amount": 541.67,
					"type": "CashFlow",
					"created": "2023-05-01T05:00:00.000Z",
					"note": "cashflow",
					"referenceId": "PA26cb6cc2"
				},
				"balance": 41000.12999999994
			},
			{
				"item": {
					"amount": 541.67,
					"type": "CashFlow",
					"created": "2023-05-01T05:00:00.000Z",
					"note": "cashflow",
					"referenceId": "PA14a2c28a"
				},
				"balance": 41541.79999999994
			},
			{
				"item": {
					"amount": 333.33,
					"type": "CashFlow",
					"created": "2023-05-01T05:00:00.000Z",
					"note": "cashflow",
					"referenceId": "PA1fdc36b0"
				},
				"balance": 41875.12999999994
			},
			{
				"item": {
					"amount": 3000,
					"type": "Income",
					"created": "2023-06-01T05:00:00.000Z",
					"note": "saved for month"
				},
				"balance": 44875.12999999994
			},
			{
				"item": {
					"amount": 541.67,
					"type": "CashFlow",
					"created": "2023-06-01T05:00:00.000Z",
					"note": "cashflow",
					"referenceId": "PA26cb6cc2"
				},
				"balance": 45416.79999999994
			},
			{
				"item": {
					"amount": 541.67,
					"type": "CashFlow",
					"created": "2023-06-01T05:00:00.000Z",
					"note": "cashflow",
					"referenceId": "PA14a2c28a"
				},
				"balance": 45958.469999999936
			},
			{
				"item": {
					"amount": 333.33,
					"type": "CashFlow",
					"created": "2023-06-01T05:00:00.000Z",
					"note": "cashflow",
					"referenceId": "PA1fdc36b0"
				},
				"balance": 46291.79999999994
			},
			{
				"item": {
					"amount": 20000,
					"type": "Equity Capture",
					"created": "2023-06-01T05:00:00.000Z",
					"note": "refinance",
					"referenceId": "PA26cb6cc2"
				},
				"balance": 66291.79999999993
			},
			{
				"item": {
					"amount": -50000,
					"type": "Purchase",
					"created": "2023-06-01T05:00:00.000Z",
					"note": "purchase",
					"referenceId": "PA3c6dc96d"
				},
				"balance": 16291.79999999993
			},
			{
				"item": {
					"amount": 3000,
					"type": "Income",
					"created": "2023-07-01T05:00:00.000Z",
					"note": "saved for month"
				},
				"balance": 19291.79999999993
			},
			{
				"item": {
					"amount": 541.67,
					"type": "CashFlow",
					"created": "2023-07-01T05:00:00.000Z",
					"note": "cashflow",
					"referenceId": "PA26cb6cc2"
				},
				"balance": 19833.46999999993
			},
			{
				"item": {
					"amount": 541.67,
					"type": "CashFlow",
					"created": "2023-07-01T05:00:00.000Z",
					"note": "cashflow",
					"referenceId": "PA14a2c28a"
				},
				"balance": 20375.139999999927
			},
			{
				"item": {
					"amount": 333.33,
					"type": "CashFlow",
					"created": "2023-07-01T05:00:00.000Z",
					"note": "cashflow",
					"referenceId": "PA1fdc36b0"
				},
				"balance": 20708.46999999993
			},
			{
				"item": {
					"amount": 166.67,
					"type": "CashFlow",
					"created": "2023-07-01T05:00:00.000Z",
					"note": "cashflow",
					"referenceId": "PA3c6dc96d"
				},
				"balance": 20875.139999999927
			},
			{
				"item": {
					"amount": 3000,
					"type": "Income",
					"created": "2023-08-01T05:00:00.000Z",
					"note": "saved for month"
				},
				"balance": 23875.139999999927
			},
			{
				"item": {
					"amount": 541.67,
					"type": "CashFlow",
					"created": "2023-08-01T05:00:00.000Z",
					"note": "cashflow",
					"referenceId": "PA26cb6cc2"
				},
				"balance": 24416.809999999925
			},
			{
				"item": {
					"amount": 541.67,
					"type": "CashFlow",
					"created": "2023-08-01T05:00:00.000Z",
					"note": "cashflow",
					"referenceId": "PA14a2c28a"
				},
				"balance": 24958.479999999923
			},
			{
				"item": {
					"amount": 333.33,
					"type": "CashFlow",
					"created": "2023-08-01T05:00:00.000Z",
					"note": "cashflow",
					"referenceId": "PA1fdc36b0"
				},
				"balance": 25291.809999999925
			},
			{
				"item": {
					"amount": 166.67,
					"type": "CashFlow",
					"created": "2023-08-01T05:00:00.000Z",
					"note": "cashflow",
					"referenceId": "PA3c6dc96d"
				},
				"balance": 25458.479999999923
			},
			{
				"item": {
					"amount": 3000,
					"type": "Income",
					"created": "2023-09-01T05:00:00.000Z",
					"note": "saved for month"
				},
				"balance": 28458.479999999923
			},
			{
				"item": {
					"amount": 541.67,
					"type": "CashFlow",
					"created": "2023-09-01T05:00:00.000Z",
					"note": "cashflow",
					"referenceId": "PA26cb6cc2"
				},
				"balance": 29000.14999999992
			},
			{
				"item": {
					"amount": 541.67,
					"type": "CashFlow",
					"created": "2023-09-01T05:00:00.000Z",
					"note": "cashflow",
					"referenceId": "PA14a2c28a"
				},
				"balance": 29541.81999999992
			},
			{
				"item": {
					"amount": 333.33,
					"type": "CashFlow",
					"created": "2023-09-01T05:00:00.000Z",
					"note": "cashflow",
					"referenceId": "PA1fdc36b0"
				},
				"balance": 29875.14999999992
			},
			{
				"item": {
					"amount": 166.67,
					"type": "CashFlow",
					"created": "2023-09-01T05:00:00.000Z",
					"note": "cashflow",
					"referenceId": "PA3c6dc96d"
				},
				"balance": 30041.81999999992
			},
			{
				"item": {
					"amount": 3000,
					"type": "Income",
					"created": "2023-10-01T05:00:00.000Z",
					"note": "saved for month"
				},
				"balance": 33041.81999999992
			},
			{
				"item": {
					"amount": 541.67,
					"type": "CashFlow",
					"created": "2023-10-01T05:00:00.000Z",
					"note": "cashflow",
					"referenceId": "PA26cb6cc2"
				},
				"balance": 33583.48999999992
			},
			{
				"item": {
					"amount": 541.67,
					"type": "CashFlow",
					"created": "2023-10-01T05:00:00.000Z",
					"note": "cashflow",
					"referenceId": "PA14a2c28a"
				},
				"balance": 34125.159999999916
			},
			{
				"item": {
					"amount": 333.33,
					"type": "CashFlow",
					"created": "2023-10-01T05:00:00.000Z",
					"note": "cashflow",
					"referenceId": "PA1fdc36b0"
				},
				"balance": 34458.48999999992
			},
			{
				"item": {
					"amount": 166.67,
					"type": "CashFlow",
					"created": "2023-10-01T05:00:00.000Z",
					"note": "cashflow",
					"referenceId": "PA3c6dc96d"
				},
				"balance": 34625.159999999916
			},
			{
				"item": {
					"amount": 3000,
					"type": "Income",
					"created": "2023-11-01T05:00:00.000Z",
					"note": "saved for month"
				},
				"balance": 37625.159999999916
			},
			{
				"item": {
					"amount": 541.67,
					"type": "CashFlow",
					"created": "2023-11-01T05:00:00.000Z",
					"note": "cashflow",
					"referenceId": "PA26cb6cc2"
				},
				"balance": 38166.829999999914
			},
			{
				"item": {
					"amount": 541.67,
					"type": "CashFlow",
					"created": "2023-11-01T05:00:00.000Z",
					"note": "cashflow",
					"referenceId": "PA14a2c28a"
				},
				"balance": 38708.49999999991
			},
			{
				"item": {
					"amount": 333.33,
					"type": "CashFlow",
					"created": "2023-11-01T05:00:00.000Z",
					"note": "cashflow",
					"referenceId": "PA1fdc36b0"
				},
				"balance": 39041.829999999914
			},
			{
				"item": {
					"amount": 166.67,
					"type": "CashFlow",
					"created": "2023-11-01T05:00:00.000Z",
					"note": "cashflow",
					"referenceId": "PA3c6dc96d"
				},
				"balance": 39208.49999999991
			},
			{
				"item": {
					"amount": 3000,
					"type": "Income",
					"created": "2023-12-01T06:00:00.000Z",
					"note": "saved for month"
				},
				"balance": 42208.49999999991
			},
			{
				"item": {
					"amount": 541.67,
					"type": "CashFlow",
					"created": "2023-12-01T06:00:00.000Z",
					"note": "cashflow",
					"referenceId": "PA26cb6cc2"
				},
				"balance": 42750.16999999991
			},
			{
				"item": {
					"amount": 541.67,
					"type": "CashFlow",
					"created": "2023-12-01T06:00:00.000Z",
					"note": "cashflow",
					"referenceId": "PA14a2c28a"
				},
				"balance": 43291.83999999991
			},
			{
				"item": {
					"amount": 333.33,
					"type": "CashFlow",
					"created": "2023-12-01T06:00:00.000Z",
					"note": "cashflow",
					"referenceId": "PA1fdc36b0"
				},
				"balance": 43625.16999999991
			},
			{
				"item": {
					"amount": 333.33,
					"type": "CashFlow",
					"created": "2023-12-01T06:00:00.000Z",
					"note": "cashflow",
					"referenceId": "PA3c6dc96d"
				},
				"balance": 43958.49999999991
			},
			{
				"item": {
					"amount": 3000,
					"type": "Income",
					"created": "2024-01-01T06:00:00.000Z",
					"note": "saved for month"
				},
				"balance": 46958.49999999991
			},
			{
				"item": {
					"amount": 541.67,
					"type": "CashFlow",
					"created": "2024-01-01T06:00:00.000Z",
					"note": "cashflow",
					"referenceId": "PA26cb6cc2"
				},
				"balance": 47500.16999999991
			},
			{
				"item": {
					"amount": 541.67,
					"type": "CashFlow",
					"created": "2024-01-01T06:00:00.000Z",
					"note": "cashflow",
					"referenceId": "PA14a2c28a"
				},
				"balance": 48041.83999999991
			},
			{
				"item": {
					"amount": 333.33,
					"type": "CashFlow",
					"created": "2024-01-01T06:00:00.000Z",
					"note": "cashflow",
					"referenceId": "PA1fdc36b0"
				},
				"balance": 48375.16999999991
			},
			{
				"item": {
					"amount": 333.33,
					"type": "CashFlow",
					"created": "2024-01-01T06:00:00.000Z",
					"note": "cashflow",
					"referenceId": "PA3c6dc96d"
				},
				"balance": 48708.49999999991
			},
			{
				"item": {
					"amount": 3000,
					"type": "Income",
					"created": "2024-02-01T06:00:00.000Z",
					"note": "saved for month"
				},
				"balance": 51708.49999999991
			},
			{
				"item": {
					"amount": 541.67,
					"type": "CashFlow",
					"created": "2024-02-01T06:00:00.000Z",
					"note": "cashflow",
					"referenceId": "PA26cb6cc2"
				},
				"balance": 52250.16999999991
			},
			{
				"item": {
					"amount": 541.67,
					"type": "CashFlow",
					"created": "2024-02-01T06:00:00.000Z",
					"note": "cashflow",
					"referenceId": "PA14a2c28a"
				},
				"balance": 52791.83999999991
			},
			{
				"item": {
					"amount": 333.33,
					"type": "CashFlow",
					"created": "2024-02-01T06:00:00.000Z",
					"note": "cashflow",
					"referenceId": "PA1fdc36b0"
				},
				"balance": 53125.16999999991
			},
			{
				"item": {
					"amount": 333.33,
					"type": "CashFlow",
					"created": "2024-02-01T06:00:00.000Z",
					"note": "cashflow",
					"referenceId": "PA3c6dc96d"
				},
				"balance": 53458.49999999991
			},
			{
				"item": {
					"amount": 3000,
					"type": "Income",
					"created": "2024-03-01T06:00:00.000Z",
					"note": "saved for month"
				},
				"balance": 56458.49999999991
			},
			{
				"item": {
					"amount": 541.67,
					"type": "CashFlow",
					"created": "2024-03-01T06:00:00.000Z",
					"note": "cashflow",
					"referenceId": "PA26cb6cc2"
				},
				"balance": 57000.16999999991
			},
			{
				"item": {
					"amount": 541.67,
					"type": "CashFlow",
					"created": "2024-03-01T06:00:00.000Z",
					"note": "cashflow",
					"referenceId": "PA14a2c28a"
				},
				"balance": 57541.83999999991
			},
			{
				"item": {
					"amount": 333.33,
					"type": "CashFlow",
					"created": "2024-03-01T06:00:00.000Z",
					"note": "cashflow",
					"referenceId": "PA1fdc36b0"
				},
				"balance": 57875.16999999991
			},
			{
				"item": {
					"amount": 333.33,
					"type": "CashFlow",
					"created": "2024-03-01T06:00:00.000Z",
					"note": "cashflow",
					"referenceId": "PA3c6dc96d"
				},
				"balance": 58208.49999999991
			},
			{
				"item": {
					"amount": 3000,
					"type": "Income",
					"created": "2024-04-01T05:00:00.000Z",
					"note": "saved for month"
				},
				"balance": 61208.49999999991
			},
			{
				"item": {
					"amount": 541.67,
					"type": "CashFlow",
					"created": "2024-04-01T05:00:00.000Z",
					"note": "cashflow",
					"referenceId": "PA26cb6cc2"
				},
				"balance": 61750.16999999991
			},
			{
				"item": {
					"amount": 541.67,
					"type": "CashFlow",
					"created": "2024-04-01T05:00:00.000Z",
					"note": "cashflow",
					"referenceId": "PA14a2c28a"
				},
				"balance": 62291.83999999991
			},
			{
				"item": {
					"amount": 333.33,
					"type": "CashFlow",
					"created": "2024-04-01T05:00:00.000Z",
					"note": "cashflow",
					"referenceId": "PA1fdc36b0"
				},
				"balance": 62625.16999999991
			},
			{
				"item": {
					"amount": 333.33,
					"type": "CashFlow",
					"created": "2024-04-01T05:00:00.000Z",
					"note": "cashflow",
					"referenceId": "PA3c6dc96d"
				},
				"balance": 62958.49999999991
			},
			{
				"item": {
					"amount": 3000,
					"type": "Income",
					"created": "2024-05-01T05:00:00.000Z",
					"note": "saved for month"
				},
				"balance": 65958.49999999991
			},
			{
				"item": {
					"amount": 541.67,
					"type": "CashFlow",
					"created": "2024-05-01T05:00:00.000Z",
					"note": "cashflow",
					"referenceId": "PA26cb6cc2"
				},
				"balance": 66500.16999999991
			},
			{
				"item": {
					"amount": 541.67,
					"type": "CashFlow",
					"created": "2024-05-01T05:00:00.000Z",
					"note": "cashflow",
					"referenceId": "PA14a2c28a"
				},
				"balance": 67041.83999999991
			},
			{
				"item": {
					"amount": 333.33,
					"type": "CashFlow",
					"created": "2024-05-01T05:00:00.000Z",
					"note": "cashflow",
					"referenceId": "PA1fdc36b0"
				},
				"balance": 67375.16999999991
			},
			{
				"item": {
					"amount": 333.33,
					"type": "CashFlow",
					"created": "2024-05-01T05:00:00.000Z",
					"note": "cashflow",
					"referenceId": "PA3c6dc96d"
				},
				"balance": 67708.49999999991
			},
			{
				"item": {
					"amount": 3000,
					"type": "Income",
					"created": "2024-06-01T05:00:00.000Z",
					"note": "saved for month"
				},
				"balance": 70708.49999999991
			},
			{
				"item": {
					"amount": 541.67,
					"type": "CashFlow",
					"created": "2024-06-01T05:00:00.000Z",
					"note": "cashflow",
					"referenceId": "PA26cb6cc2"
				},
				"balance": 71250.16999999991
			},
			{
				"item": {
					"amount": 541.67,
					"type": "CashFlow",
					"created": "2024-06-01T05:00:00.000Z",
					"note": "cashflow",
					"referenceId": "PA14a2c28a"
				},
				"balance": 71791.83999999991
			},
			{
				"item": {
					"amount": 333.33,
					"type": "CashFlow",
					"created": "2024-06-01T05:00:00.000Z",
					"note": "cashflow",
					"referenceId": "PA1fdc36b0"
				},
				"balance": 72125.16999999991
			},
			{
				"item": {
					"amount": 333.33,
					"type": "CashFlow",
					"created": "2024-06-01T05:00:00.000Z",
					"note": "cashflow",
					"referenceId": "PA3c6dc96d"
				},
				"balance": 72458.49999999991
			},
			{
				"item": {
					"amount": 3000,
					"type": "Income",
					"created": "2024-07-01T05:00:00.000Z",
					"note": "saved for month"
				},
				"balance": 75458.49999999991
			},
			{
				"item": {
					"amount": 541.67,
					"type": "CashFlow",
					"created": "2024-07-01T05:00:00.000Z",
					"note": "cashflow",
					"referenceId": "PA26cb6cc2"
				},
				"balance": 76000.16999999991
			},
			{
				"item": {
					"amount": 541.67,
					"type": "CashFlow",
					"created": "2024-07-01T05:00:00.000Z",
					"note": "cashflow",
					"referenceId": "PA14a2c28a"
				},
				"balance": 76541.83999999991
			},
			{
				"item": {
					"amount": 333.33,
					"type": "CashFlow",
					"created": "2024-07-01T05:00:00.000Z",
					"note": "cashflow",
					"referenceId": "PA1fdc36b0"
				},
				"balance": 76875.16999999991
			},
			{
				"item": {
					"amount": 333.33,
					"type": "CashFlow",
					"created": "2024-07-01T05:00:00.000Z",
					"note": "cashflow",
					"referenceId": "PA3c6dc96d"
				},
				"balance": 77208.49999999991
			},
			{
				"item": {
					"amount": 3000,
					"type": "Income",
					"created": "2024-08-01T05:00:00.000Z",
					"note": "saved for month"
				},
				"balance": 80208.49999999991
			},
			{
				"item": {
					"amount": 541.67,
					"type": "CashFlow",
					"created": "2024-08-01T05:00:00.000Z",
					"note": "cashflow",
					"referenceId": "PA26cb6cc2"
				},
				"balance": 80750.16999999991
			},
			{
				"item": {
					"amount": 541.67,
					"type": "CashFlow",
					"created": "2024-08-01T05:00:00.000Z",
					"note": "cashflow",
					"referenceId": "PA14a2c28a"
				},
				"balance": 81291.83999999991
			},
			{
				"item": {
					"amount": 333.33,
					"type": "CashFlow",
					"created": "2024-08-01T05:00:00.000Z",
					"note": "cashflow",
					"referenceId": "PA1fdc36b0"
				},
				"balance": 81625.16999999991
			},
			{
				"item": {
					"amount": 333.33,
					"type": "CashFlow",
					"created": "2024-08-01T05:00:00.000Z",
					"note": "cashflow",
					"referenceId": "PA3c6dc96d"
				},
				"balance": 81958.49999999991
			},
			{
				"item": {
					"amount": 20000,
					"type": "Equity Capture",
					"created": "2024-08-01T05:00:00.000Z",
					"note": "refinance",
					"referenceId": "PA14a2c28a"
				},
				"balance": 101958.49999999991
			},
			{
				"item": {
					"amount": 3000,
					"type": "Income",
					"created": "2024-09-01T05:00:00.000Z",
					"note": "saved for month"
				},
				"balance": 104958.49999999991
			},
			{
				"item": {
					"amount": 541.67,
					"type": "CashFlow",
					"created": "2024-09-01T05:00:00.000Z",
					"note": "cashflow",
					"referenceId": "PA26cb6cc2"
				},
				"balance": 105500.16999999991
			},
			{
				"item": {
					"amount": 541.67,
					"type": "CashFlow",
					"created": "2024-09-01T05:00:00.000Z",
					"note": "cashflow",
					"referenceId": "PA14a2c28a"
				},
				"balance": 106041.83999999991
			},
			{
				"item": {
					"amount": 333.33,
					"type": "CashFlow",
					"created": "2024-09-01T05:00:00.000Z",
					"note": "cashflow",
					"referenceId": "PA1fdc36b0"
				},
				"balance": 106375.16999999991
			},
			{
				"item": {
					"amount": 333.33,
					"type": "CashFlow",
					"created": "2024-09-01T05:00:00.000Z",
					"note": "cashflow",
					"referenceId": "PA3c6dc96d"
				},
				"balance": 106708.49999999991
			},
			{
				"item": {
					"amount": 3000,
					"type": "Income",
					"created": "2024-10-01T05:00:00.000Z",
					"note": "saved for month"
				},
				"balance": 109708.49999999991
			},
			{
				"item": {
					"amount": 541.67,
					"type": "CashFlow",
					"created": "2024-10-01T05:00:00.000Z",
					"note": "cashflow",
					"referenceId": "PA26cb6cc2"
				},
				"balance": 110250.16999999991
			},
			{
				"item": {
					"amount": 541.67,
					"type": "CashFlow",
					"created": "2024-10-01T05:00:00.000Z",
					"note": "cashflow",
					"referenceId": "PA14a2c28a"
				},
				"balance": 110791.83999999991
			},
			{
				"item": {
					"amount": 333.33,
					"type": "CashFlow",
					"created": "2024-10-01T05:00:00.000Z",
					"note": "cashflow",
					"referenceId": "PA1fdc36b0"
				},
				"balance": 111125.16999999991
			},
			{
				"item": {
					"amount": 333.33,
					"type": "CashFlow",
					"created": "2024-10-01T05:00:00.000Z",
					"note": "cashflow",
					"referenceId": "PA3c6dc96d"
				},
				"balance": 111458.49999999991
			},
			{
				"item": {
					"amount": 3000,
					"type": "Income",
					"created": "2024-11-01T05:00:00.000Z",
					"note": "saved for month"
				},
				"balance": 114458.49999999991
			},
			{
				"item": {
					"amount": 541.67,
					"type": "CashFlow",
					"created": "2024-11-01T05:00:00.000Z",
					"note": "cashflow",
					"referenceId": "PA26cb6cc2"
				},
				"balance": 115000.16999999991
			},
			{
				"item": {
					"amount": 541.67,
					"type": "CashFlow",
					"created": "2024-11-01T05:00:00.000Z",
					"note": "cashflow",
					"referenceId": "PA14a2c28a"
				},
				"balance": 115541.83999999991
			},
			{
				"item": {
					"amount": 333.33,
					"type": "CashFlow",
					"created": "2024-11-01T05:00:00.000Z",
					"note": "cashflow",
					"referenceId": "PA1fdc36b0"
				},
				"balance": 115875.16999999991
			},
			{
				"item": {
					"amount": 333.33,
					"type": "CashFlow",
					"created": "2024-11-01T05:00:00.000Z",
					"note": "cashflow",
					"referenceId": "PA3c6dc96d"
				},
				"balance": 116208.49999999991
			},
			{
				"item": {
					"amount": 3000,
					"type": "Income",
					"created": "2024-12-01T06:00:00.000Z",
					"note": "saved for month"
				},
				"balance": 119208.49999999991
			},
			{
				"item": {
					"amount": 541.67,
					"type": "CashFlow",
					"created": "2024-12-01T06:00:00.000Z",
					"note": "cashflow",
					"referenceId": "PA26cb6cc2"
				},
				"balance": 119750.16999999991
			},
			{
				"item": {
					"amount": 541.67,
					"type": "CashFlow",
					"created": "2024-12-01T06:00:00.000Z",
					"note": "cashflow",
					"referenceId": "PA14a2c28a"
				},
				"balance": 120291.83999999991
			},
			{
				"item": {
					"amount": 333.33,
					"type": "CashFlow",
					"created": "2024-12-01T06:00:00.000Z",
					"note": "cashflow",
					"referenceId": "PA1fdc36b0"
				},
				"balance": 120625.16999999991
			},
			{
				"item": {
					"amount": 333.33,
					"type": "CashFlow",
					"created": "2024-12-01T06:00:00.000Z",
					"note": "cashflow",
					"referenceId": "PA3c6dc96d"
				},
				"balance": 120958.49999999991
			},
			{
				"item": {
					"amount": 3000,
					"type": "Income",
					"created": "2025-01-01T06:00:00.000Z",
					"note": "saved for month"
				},
				"balance": 123958.49999999991
			},
			{
				"item": {
					"amount": 541.67,
					"type": "CashFlow",
					"created": "2025-01-01T06:00:00.000Z",
					"note": "cashflow",
					"referenceId": "PA26cb6cc2"
				},
				"balance": 124500.16999999991
			},
			{
				"item": {
					"amount": 541.67,
					"type": "CashFlow",
					"created": "2025-01-01T06:00:00.000Z",
					"note": "cashflow",
					"referenceId": "PA14a2c28a"
				},
				"balance": 125041.83999999991
			},
			{
				"item": {
					"amount": 333.33,
					"type": "CashFlow",
					"created": "2025-01-01T06:00:00.000Z",
					"note": "cashflow",
					"referenceId": "PA1fdc36b0"
				},
				"balance": 125375.16999999991
			},
			{
				"item": {
					"amount": 333.33,
					"type": "CashFlow",
					"created": "2025-01-01T06:00:00.000Z",
					"note": "cashflow",
					"referenceId": "PA3c6dc96d"
				},
				"balance": 125708.49999999991
			},
			{
				"item": {
					"amount": 3000,
					"type": "Income",
					"created": "2025-02-01T06:00:00.000Z",
					"note": "saved for month"
				},
				"balance": 128708.49999999991
			},
			{
				"item": {
					"amount": 541.67,
					"type": "CashFlow",
					"created": "2025-02-01T06:00:00.000Z",
					"note": "cashflow",
					"referenceId": "PA26cb6cc2"
				},
				"balance": 129250.16999999991
			},
			{
				"item": {
					"amount": 541.67,
					"type": "CashFlow",
					"created": "2025-02-01T06:00:00.000Z",
					"note": "cashflow",
					"referenceId": "PA14a2c28a"
				},
				"balance": 129791.83999999991
			},
			{
				"item": {
					"amount": 333.33,
					"type": "CashFlow",
					"created": "2025-02-01T06:00:00.000Z",
					"note": "cashflow",
					"referenceId": "PA1fdc36b0"
				},
				"balance": 130125.16999999991
			},
			{
				"item": {
					"amount": 333.33,
					"type": "CashFlow",
					"created": "2025-02-01T06:00:00.000Z",
					"note": "cashflow",
					"referenceId": "PA3c6dc96d"
				},
				"balance": 130458.49999999991
			},
			{
				"item": {
					"amount": 3000,
					"type": "Income",
					"created": "2025-03-01T06:00:00.000Z",
					"note": "saved for month"
				},
				"balance": 133458.4999999999
			},
			{
				"item": {
					"amount": 541.67,
					"type": "CashFlow",
					"created": "2025-03-01T06:00:00.000Z",
					"note": "cashflow",
					"referenceId": "PA26cb6cc2"
				},
				"balance": 134000.16999999993
			},
			{
				"item": {
					"amount": 541.67,
					"type": "CashFlow",
					"created": "2025-03-01T06:00:00.000Z",
					"note": "cashflow",
					"referenceId": "PA14a2c28a"
				},
				"balance": 134541.83999999994
			},
			{
				"item": {
					"amount": 333.33,
					"type": "CashFlow",
					"created": "2025-03-01T06:00:00.000Z",
					"note": "cashflow",
					"referenceId": "PA1fdc36b0"
				},
				"balance": 134875.16999999993
			},
			{
				"item": {
					"amount": 333.33,
					"type": "CashFlow",
					"created": "2025-03-01T06:00:00.000Z",
					"note": "cashflow",
					"referenceId": "PA3c6dc96d"
				},
				"balance": 135208.4999999999
			},
			{
				"item": {
					"amount": 3000,
					"type": "Income",
					"created": "2025-04-01T05:00:00.000Z",
					"note": "saved for month"
				},
				"balance": 138208.4999999999
			},
			{
				"item": {
					"amount": 541.67,
					"type": "CashFlow",
					"created": "2025-04-01T05:00:00.000Z",
					"note": "cashflow",
					"referenceId": "PA26cb6cc2"
				},
				"balance": 138750.16999999993
			},
			{
				"item": {
					"amount": 541.67,
					"type": "CashFlow",
					"created": "2025-04-01T05:00:00.000Z",
					"note": "cashflow",
					"referenceId": "PA14a2c28a"
				},
				"balance": 139291.83999999994
			},
			{
				"item": {
					"amount": 333.33,
					"type": "CashFlow",
					"created": "2025-04-01T05:00:00.000Z",
					"note": "cashflow",
					"referenceId": "PA1fdc36b0"
				},
				"balance": 139625.16999999993
			},
			{
				"item": {
					"amount": 333.33,
					"type": "CashFlow",
					"created": "2025-04-01T05:00:00.000Z",
					"note": "cashflow",
					"referenceId": "PA3c6dc96d"
				},
				"balance": 139958.4999999999
			},
			{
				"item": {
					"amount": 3000,
					"type": "Income",
					"created": "2025-05-01T05:00:00.000Z",
					"note": "saved for month"
				},
				"balance": 142958.4999999999
			},
			{
				"item": {
					"amount": 541.67,
					"type": "CashFlow",
					"created": "2025-05-01T05:00:00.000Z",
					"note": "cashflow",
					"referenceId": "PA26cb6cc2"
				},
				"balance": 143500.16999999993
			},
			{
				"item": {
					"amount": 541.67,
					"type": "CashFlow",
					"created": "2025-05-01T05:00:00.000Z",
					"note": "cashflow",
					"referenceId": "PA14a2c28a"
				},
				"balance": 144041.83999999994
			},
			{
				"item": {
					"amount": 333.33,
					"type": "CashFlow",
					"created": "2025-05-01T05:00:00.000Z",
					"note": "cashflow",
					"referenceId": "PA1fdc36b0"
				},
				"balance": 144375.16999999993
			},
			{
				"item": {
					"amount": 333.33,
					"type": "CashFlow",
					"created": "2025-05-01T05:00:00.000Z",
					"note": "cashflow",
					"referenceId": "PA3c6dc96d"
				},
				"balance": 144708.4999999999
			},
			{
				"item": {
					"amount": 77000,
					"type": "Equity Capture",
					"created": "2025-05-01T05:00:00.000Z",
					"note": "sold",
					"referenceId": "PA26cb6cc2"
				},
				"balance": 221708.4999999999
			},
			{
				"item": {
					"amount": 3000,
					"type": "Income",
					"created": "2025-06-01T05:00:00.000Z",
					"note": "saved for month"
				},
				"balance": 224708.4999999999
			},
			{
				"item": {
					"amount": 541.67,
					"type": "CashFlow",
					"created": "2025-06-01T05:00:00.000Z",
					"note": "cashflow",
					"referenceId": "PA14a2c28a"
				},
				"balance": 225250.16999999993
			},
			{
				"item": {
					"amount": 333.33,
					"type": "CashFlow",
					"created": "2025-06-01T05:00:00.000Z",
					"note": "cashflow",
					"referenceId": "PA1fdc36b0"
				},
				"balance": 225583.4999999999
			},
			{
				"item": {
					"amount": 333.33,
					"type": "CashFlow",
					"created": "2025-06-01T05:00:00.000Z",
					"note": "cashflow",
					"referenceId": "PA3c6dc96d"
				},
				"balance": 225916.8299999999
			},
			{
				"item": {
					"amount": 3000,
					"type": "Income",
					"created": "2025-07-01T05:00:00.000Z",
					"note": "saved for month"
				},
				"balance": 228916.8299999999
			},
			{
				"item": {
					"amount": 541.67,
					"type": "CashFlow",
					"created": "2025-07-01T05:00:00.000Z",
					"note": "cashflow",
					"referenceId": "PA14a2c28a"
				},
				"balance": 229458.4999999999
			},
			{
				"item": {
					"amount": 333.33,
					"type": "CashFlow",
					"created": "2025-07-01T05:00:00.000Z",
					"note": "cashflow",
					"referenceId": "PA1fdc36b0"
				},
				"balance": 229791.8299999999
			},
			{
				"item": {
					"amount": 333.33,
					"type": "CashFlow",
					"created": "2025-07-01T05:00:00.000Z",
					"note": "cashflow",
					"referenceId": "PA3c6dc96d"
				},
				"balance": 230125.1599999999
			},
			{
				"item": {
					"amount": 3000,
					"type": "Income",
					"created": "2025-08-01T05:00:00.000Z",
					"note": "saved for month"
				},
				"balance": 233125.1599999999
			},
			{
				"item": {
					"amount": 541.67,
					"type": "CashFlow",
					"created": "2025-08-01T05:00:00.000Z",
					"note": "cashflow",
					"referenceId": "PA14a2c28a"
				},
				"balance": 233666.8299999999
			},
			{
				"item": {
					"amount": 333.33,
					"type": "CashFlow",
					"created": "2025-08-01T05:00:00.000Z",
					"note": "cashflow",
					"referenceId": "PA1fdc36b0"
				},
				"balance": 234000.1599999999
			},
			{
				"item": {
					"amount": 333.33,
					"type": "CashFlow",
					"created": "2025-08-01T05:00:00.000Z",
					"note": "cashflow",
					"referenceId": "PA3c6dc96d"
				},
				"balance": 234333.48999999987
			},
			{
				"item": {
					"amount": 3000,
					"type": "Income",
					"created": "2025-09-01T05:00:00.000Z",
					"note": "saved for month"
				},
				"balance": 237333.48999999987
			},
			{
				"item": {
					"amount": 541.67,
					"type": "CashFlow",
					"created": "2025-09-01T05:00:00.000Z",
					"note": "cashflow",
					"referenceId": "PA14a2c28a"
				},
				"balance": 237875.1599999999
			},
			{
				"item": {
					"amount": 333.33,
					"type": "CashFlow",
					"created": "2025-09-01T05:00:00.000Z",
					"note": "cashflow",
					"referenceId": "PA1fdc36b0"
				},
				"balance": 238208.48999999987
			},
			{
				"item": {
					"amount": 333.33,
					"type": "CashFlow",
					"created": "2025-09-01T05:00:00.000Z",
					"note": "cashflow",
					"referenceId": "PA3c6dc96d"
				},
				"balance": 238541.81999999986
			},
			{
				"item": {
					"amount": 20000,
					"type": "Equity Capture",
					"created": "2025-09-01T05:00:00.000Z",
					"note": "refinance",
					"referenceId": "PA1fdc36b0"
				},
				"balance": 258541.81999999986
			},
			{
				"item": {
					"amount": 3000,
					"type": "Income",
					"created": "2025-10-01T05:00:00.000Z",
					"note": "saved for month"
				},
				"balance": 261541.81999999986
			},
			{
				"item": {
					"amount": 541.67,
					"type": "CashFlow",
					"created": "2025-10-01T05:00:00.000Z",
					"note": "cashflow",
					"referenceId": "PA14a2c28a"
				},
				"balance": 262083.48999999987
			},
			{
				"item": {
					"amount": 333.33,
					"type": "CashFlow",
					"created": "2025-10-01T05:00:00.000Z",
					"note": "cashflow",
					"referenceId": "PA1fdc36b0"
				},
				"balance": 262416.8199999999
			},
			{
				"item": {
					"amount": 333.33,
					"type": "CashFlow",
					"created": "2025-10-01T05:00:00.000Z",
					"note": "cashflow",
					"referenceId": "PA3c6dc96d"
				},
				"balance": 262750.1499999999
			},
			{
				"item": {
					"amount": 3000,
					"type": "Income",
					"created": "2025-11-01T05:00:00.000Z",
					"note": "saved for month"
				},
				"balance": 265750.1499999999
			},
			{
				"item": {
					"amount": 541.67,
					"type": "CashFlow",
					"created": "2025-11-01T05:00:00.000Z",
					"note": "cashflow",
					"referenceId": "PA14a2c28a"
				},
				"balance": 266291.8199999999
			},
			{
				"item": {
					"amount": 333.33,
					"type": "CashFlow",
					"created": "2025-11-01T05:00:00.000Z",
					"note": "cashflow",
					"referenceId": "PA1fdc36b0"
				},
				"balance": 266625.1499999999
			},
			{
				"item": {
					"amount": 333.33,
					"type": "CashFlow",
					"created": "2025-11-01T05:00:00.000Z",
					"note": "cashflow",
					"referenceId": "PA3c6dc96d"
				},
				"balance": 266958.4799999999
			},
			{
				"item": {
					"amount": 3000,
					"type": "Income",
					"created": "2025-12-01T06:00:00.000Z",
					"note": "saved for month"
				},
				"balance": 269958.4799999999
			},
			{
				"item": {
					"amount": 541.67,
					"type": "CashFlow",
					"created": "2025-12-01T06:00:00.000Z",
					"note": "cashflow",
					"referenceId": "PA14a2c28a"
				},
				"balance": 270500.1499999999
			},
			{
				"item": {
					"amount": 333.33,
					"type": "CashFlow",
					"created": "2025-12-01T06:00:00.000Z",
					"note": "cashflow",
					"referenceId": "PA1fdc36b0"
				},
				"balance": 270833.4799999999
			},
			{
				"item": {
					"amount": 333.33,
					"type": "CashFlow",
					"created": "2025-12-01T06:00:00.000Z",
					"note": "cashflow",
					"referenceId": "PA3c6dc96d"
				},
				"balance": 271166.80999999994
			},
			{
				"item": {
					"amount": 3000,
					"type": "Income",
					"created": "2026-01-01T06:00:00.000Z",
					"note": "saved for month"
				},
				"balance": 274166.80999999994
			},
			{
				"item": {
					"amount": 541.67,
					"type": "CashFlow",
					"created": "2026-01-01T06:00:00.000Z",
					"note": "cashflow",
					"referenceId": "PA14a2c28a"
				},
				"balance": 274708.4799999999
			},
			{
				"item": {
					"amount": 333.33,
					"type": "CashFlow",
					"created": "2026-01-01T06:00:00.000Z",
					"note": "cashflow",
					"referenceId": "PA1fdc36b0"
				},
				"balance": 275041.80999999994
			},
			{
				"item": {
					"amount": 333.33,
					"type": "CashFlow",
					"created": "2026-01-01T06:00:00.000Z",
					"note": "cashflow",
					"referenceId": "PA3c6dc96d"
				},
				"balance": 275375.13999999996
			},
			{
				"item": {
					"amount": 3000,
					"type": "Income",
					"created": "2026-02-01T06:00:00.000Z",
					"note": "saved for month"
				},
				"balance": 278375.13999999996
			},
			{
				"item": {
					"amount": 541.67,
					"type": "CashFlow",
					"created": "2026-02-01T06:00:00.000Z",
					"note": "cashflow",
					"referenceId": "PA14a2c28a"
				},
				"balance": 278916.80999999994
			},
			{
				"item": {
					"amount": 333.33,
					"type": "CashFlow",
					"created": "2026-02-01T06:00:00.000Z",
					"note": "cashflow",
					"referenceId": "PA1fdc36b0"
				},
				"balance": 279250.13999999996
			},
			{
				"item": {
					"amount": 333.33,
					"type": "CashFlow",
					"created": "2026-02-01T06:00:00.000Z",
					"note": "cashflow",
					"referenceId": "PA3c6dc96d"
				},
				"balance": 279583.47
			},
			{
				"item": {
					"amount": 3000,
					"type": "Income",
					"created": "2026-03-01T06:00:00.000Z",
					"note": "saved for month"
				},
				"balance": 282583.47
			},
			{
				"item": {
					"amount": 541.67,
					"type": "CashFlow",
					"created": "2026-03-01T06:00:00.000Z",
					"note": "cashflow",
					"referenceId": "PA14a2c28a"
				},
				"balance": 283125.13999999996
			},
			{
				"item": {
					"amount": 333.33,
					"type": "CashFlow",
					"created": "2026-03-01T06:00:00.000Z",
					"note": "cashflow",
					"referenceId": "PA1fdc36b0"
				},
				"balance": 283458.47
			},
			{
				"item": {
					"amount": 333.33,
					"type": "CashFlow",
					"created": "2026-03-01T06:00:00.000Z",
					"note": "cashflow",
					"referenceId": "PA3c6dc96d"
				},
				"balance": 283791.8
			},
			{
				"item": {
					"amount": 3000,
					"type": "Income",
					"created": "2026-04-01T05:00:00.000Z",
					"note": "saved for month"
				},
				"balance": 286791.8
			},
			{
				"item": {
					"amount": 541.67,
					"type": "CashFlow",
					"created": "2026-04-01T05:00:00.000Z",
					"note": "cashflow",
					"referenceId": "PA14a2c28a"
				},
				"balance": 287333.47
			},
			{
				"item": {
					"amount": 333.33,
					"type": "CashFlow",
					"created": "2026-04-01T05:00:00.000Z",
					"note": "cashflow",
					"referenceId": "PA1fdc36b0"
				},
				"balance": 287666.8
			},
			{
				"item": {
					"amount": 333.33,
					"type": "CashFlow",
					"created": "2026-04-01T05:00:00.000Z",
					"note": "cashflow",
					"referenceId": "PA3c6dc96d"
				},
				"balance": 288000.13
			},
			{
				"item": {
					"amount": 3000,
					"type": "Income",
					"created": "2026-05-01T05:00:00.000Z",
					"note": "saved for month"
				},
				"balance": 291000.13
			},
			{
				"item": {
					"amount": 541.67,
					"type": "CashFlow",
					"created": "2026-05-01T05:00:00.000Z",
					"note": "cashflow",
					"referenceId": "PA14a2c28a"
				},
				"balance": 291541.8
			},
			{
				"item": {
					"amount": 333.33,
					"type": "CashFlow",
					"created": "2026-05-01T05:00:00.000Z",
					"note": "cashflow",
					"referenceId": "PA1fdc36b0"
				},
				"balance": 291875.13
			},
			{
				"item": {
					"amount": 333.33,
					"type": "CashFlow",
					"created": "2026-05-01T05:00:00.000Z",
					"note": "cashflow",
					"referenceId": "PA3c6dc96d"
				},
				"balance": 292208.46
			},
			{
				"item": {
					"amount": 3000,
					"type": "Income",
					"created": "2026-06-01T05:00:00.000Z",
					"note": "saved for month"
				},
				"balance": 295208.46
			},
			{
				"item": {
					"amount": 541.67,
					"type": "CashFlow",
					"created": "2026-06-01T05:00:00.000Z",
					"note": "cashflow",
					"referenceId": "PA14a2c28a"
				},
				"balance": 295750.13
			},
			{
				"item": {
					"amount": 333.33,
					"type": "CashFlow",
					"created": "2026-06-01T05:00:00.000Z",
					"note": "cashflow",
					"referenceId": "PA1fdc36b0"
				},
				"balance": 296083.46
			},
			{
				"item": {
					"amount": 333.33,
					"type": "CashFlow",
					"created": "2026-06-01T05:00:00.000Z",
					"note": "cashflow",
					"referenceId": "PA3c6dc96d"
				},
				"balance": 296416.79000000004
			},
			{
				"item": {
					"amount": 3000,
					"type": "Income",
					"created": "2026-07-01T05:00:00.000Z",
					"note": "saved for month"
				},
				"balance": 299416.79000000004
			},
			{
				"item": {
					"amount": 541.67,
					"type": "CashFlow",
					"created": "2026-07-01T05:00:00.000Z",
					"note": "cashflow",
					"referenceId": "PA14a2c28a"
				},
				"balance": 299958.46
			},
			{
				"item": {
					"amount": 333.33,
					"type": "CashFlow",
					"created": "2026-07-01T05:00:00.000Z",
					"note": "cashflow",
					"referenceId": "PA1fdc36b0"
				},
				"balance": 300291.79000000004
			},
			{
				"item": {
					"amount": 333.33,
					"type": "CashFlow",
					"created": "2026-07-01T05:00:00.000Z",
					"note": "cashflow",
					"referenceId": "PA3c6dc96d"
				},
				"balance": 300625.12000000005
			},
			{
				"item": {
					"amount": 20000,
					"type": "Equity Capture",
					"created": "2026-07-01T05:00:00.000Z",
					"note": "refinance",
					"referenceId": "PA3c6dc96d"
				},
				"balance": 320625.12000000005
			},
			{
				"item": {
					"amount": 3000,
					"type": "Income",
					"created": "2026-08-01T05:00:00.000Z",
					"note": "saved for month"
				},
				"balance": 323625.12000000005
			},
			{
				"item": {
					"amount": 541.67,
					"type": "CashFlow",
					"created": "2026-08-01T05:00:00.000Z",
					"note": "cashflow",
					"referenceId": "PA14a2c28a"
				},
				"balance": 324166.79000000004
			},
			{
				"item": {
					"amount": 333.33,
					"type": "CashFlow",
					"created": "2026-08-01T05:00:00.000Z",
					"note": "cashflow",
					"referenceId": "PA1fdc36b0"
				},
				"balance": 324500.12000000005
			},
			{
				"item": {
					"amount": 333.33,
					"type": "CashFlow",
					"created": "2026-08-01T05:00:00.000Z",
					"note": "cashflow",
					"referenceId": "PA3c6dc96d"
				},
				"balance": 324833.45000000007
			},
			{
				"item": {
					"amount": 3000,
					"type": "Income",
					"created": "2026-09-01T05:00:00.000Z",
					"note": "saved for month"
				},
				"balance": 327833.45000000007
			},
			{
				"item": {
					"amount": 541.67,
					"type": "CashFlow",
					"created": "2026-09-01T05:00:00.000Z",
					"note": "cashflow",
					"referenceId": "PA14a2c28a"
				},
				"balance": 328375.12000000005
			},
			{
				"item": {
					"amount": 333.33,
					"type": "CashFlow",
					"created": "2026-09-01T05:00:00.000Z",
					"note": "cashflow",
					"referenceId": "PA1fdc36b0"
				},
				"balance": 328708.45000000007
			},
			{
				"item": {
					"amount": 333.33,
					"type": "CashFlow",
					"created": "2026-09-01T05:00:00.000Z",
					"note": "cashflow",
					"referenceId": "PA3c6dc96d"
				},
				"balance": 329041.7800000001
			},
			{
				"item": {
					"amount": 3000,
					"type": "Income",
					"created": "2026-10-01T05:00:00.000Z",
					"note": "saved for month"
				},
				"balance": 332041.7800000001
			},
			{
				"item": {
					"amount": 541.67,
					"type": "CashFlow",
					"created": "2026-10-01T05:00:00.000Z",
					"note": "cashflow",
					"referenceId": "PA14a2c28a"
				},
				"balance": 332583.45000000007
			},
			{
				"item": {
					"amount": 333.33,
					"type": "CashFlow",
					"created": "2026-10-01T05:00:00.000Z",
					"note": "cashflow",
					"referenceId": "PA1fdc36b0"
				},
				"balance": 332916.7800000001
			},
			{
				"item": {
					"amount": 333.33,
					"type": "CashFlow",
					"created": "2026-10-01T05:00:00.000Z",
					"note": "cashflow",
					"referenceId": "PA3c6dc96d"
				},
				"balance": 333250.1100000001
			},
			{
				"item": {
					"amount": 3000,
					"type": "Income",
					"created": "2026-11-01T05:00:00.000Z",
					"note": "saved for month"
				},
				"balance": 336250.1100000001
			},
			{
				"item": {
					"amount": 541.67,
					"type": "CashFlow",
					"created": "2026-11-01T05:00:00.000Z",
					"note": "cashflow",
					"referenceId": "PA14a2c28a"
				},
				"balance": 336791.7800000001
			},
			{
				"item": {
					"amount": 333.33,
					"type": "CashFlow",
					"created": "2026-11-01T05:00:00.000Z",
					"note": "cashflow",
					"referenceId": "PA1fdc36b0"
				},
				"balance": 337125.1100000001
			},
			{
				"item": {
					"amount": 333.33,
					"type": "CashFlow",
					"created": "2026-11-01T05:00:00.000Z",
					"note": "cashflow",
					"referenceId": "PA3c6dc96d"
				},
				"balance": 337458.4400000001
			},
			{
				"item": {
					"amount": 3000,
					"type": "Income",
					"created": "2026-12-01T06:00:00.000Z",
					"note": "saved for month"
				},
				"balance": 340458.4400000001
			},
			{
				"item": {
					"amount": 541.67,
					"type": "CashFlow",
					"created": "2026-12-01T06:00:00.000Z",
					"note": "cashflow",
					"referenceId": "PA14a2c28a"
				},
				"balance": 341000.1100000001
			},
			{
				"item": {
					"amount": 333.33,
					"type": "CashFlow",
					"created": "2026-12-01T06:00:00.000Z",
					"note": "cashflow",
					"referenceId": "PA1fdc36b0"
				},
				"balance": 341333.4400000001
			},
			{
				"item": {
					"amount": 333.33,
					"type": "CashFlow",
					"created": "2026-12-01T06:00:00.000Z",
					"note": "cashflow",
					"referenceId": "PA3c6dc96d"
				},
				"balance": 341666.77000000014
			},
			{
				"item": {
					"amount": 3000,
					"type": "Income",
					"created": "2027-01-01T06:00:00.000Z",
					"note": "saved for month"
				},
				"balance": 344666.77000000014
			},
			{
				"item": {
					"amount": 541.67,
					"type": "CashFlow",
					"created": "2027-01-01T06:00:00.000Z",
					"note": "cashflow",
					"referenceId": "PA14a2c28a"
				},
				"balance": 345208.4400000001
			},
			{
				"item": {
					"amount": 333.33,
					"type": "CashFlow",
					"created": "2027-01-01T06:00:00.000Z",
					"note": "cashflow",
					"referenceId": "PA1fdc36b0"
				},
				"balance": 345541.77000000014
			},
			{
				"item": {
					"amount": 333.33,
					"type": "CashFlow",
					"created": "2027-01-01T06:00:00.000Z",
					"note": "cashflow",
					"referenceId": "PA3c6dc96d"
				},
				"balance": 345875.10000000015
			},
			{
				"item": {
					"amount": 3000,
					"type": "Income",
					"created": "2027-02-01T06:00:00.000Z",
					"note": "saved for month"
				},
				"balance": 348875.10000000015
			},
			{
				"item": {
					"amount": 541.67,
					"type": "CashFlow",
					"created": "2027-02-01T06:00:00.000Z",
					"note": "cashflow",
					"referenceId": "PA14a2c28a"
				},
				"balance": 349416.77000000014
			},
			{
				"item": {
					"amount": 333.33,
					"type": "CashFlow",
					"created": "2027-02-01T06:00:00.000Z",
					"note": "cashflow",
					"referenceId": "PA1fdc36b0"
				},
				"balance": 349750.10000000015
			},
			{
				"item": {
					"amount": 333.33,
					"type": "CashFlow",
					"created": "2027-02-01T06:00:00.000Z",
					"note": "cashflow",
					"referenceId": "PA3c6dc96d"
				},
				"balance": 350083.43000000017
			},
			{
				"item": {
					"amount": 3000,
					"type": "Income",
					"created": "2027-03-01T06:00:00.000Z",
					"note": "saved for month"
				},
				"balance": 353083.43000000017
			},
			{
				"item": {
					"amount": 541.67,
					"type": "CashFlow",
					"created": "2027-03-01T06:00:00.000Z",
					"note": "cashflow",
					"referenceId": "PA14a2c28a"
				},
				"balance": 353625.10000000015
			},
			{
				"item": {
					"amount": 333.33,
					"type": "CashFlow",
					"created": "2027-03-01T06:00:00.000Z",
					"note": "cashflow",
					"referenceId": "PA1fdc36b0"
				},
				"balance": 353958.43000000017
			},
			{
				"item": {
					"amount": 333.33,
					"type": "CashFlow",
					"created": "2027-03-01T06:00:00.000Z",
					"note": "cashflow",
					"referenceId": "PA3c6dc96d"
				},
				"balance": 354291.7600000002
			},
			{
				"item": {
					"amount": 3000,
					"type": "Income",
					"created": "2027-04-01T05:00:00.000Z",
					"note": "saved for month"
				},
				"balance": 357291.7600000002
			},
			{
				"item": {
					"amount": 541.67,
					"type": "CashFlow",
					"created": "2027-04-01T05:00:00.000Z",
					"note": "cashflow",
					"referenceId": "PA14a2c28a"
				},
				"balance": 357833.43000000017
			},
			{
				"item": {
					"amount": 333.33,
					"type": "CashFlow",
					"created": "2027-04-01T05:00:00.000Z",
					"note": "cashflow",
					"referenceId": "PA1fdc36b0"
				},
				"balance": 358166.7600000002
			},
			{
				"item": {
					"amount": 333.33,
					"type": "CashFlow",
					"created": "2027-04-01T05:00:00.000Z",
					"note": "cashflow",
					"referenceId": "PA3c6dc96d"
				},
				"balance": 358500.0900000002
			},
			{
				"item": {
					"amount": 3000,
					"type": "Income",
					"created": "2027-05-01T05:00:00.000Z",
					"note": "saved for month"
				},
				"balance": 361500.0900000002
			},
			{
				"item": {
					"amount": 541.67,
					"type": "CashFlow",
					"created": "2027-05-01T05:00:00.000Z",
					"note": "cashflow",
					"referenceId": "PA14a2c28a"
				},
				"balance": 362041.7600000002
			},
			{
				"item": {
					"amount": 333.33,
					"type": "CashFlow",
					"created": "2027-05-01T05:00:00.000Z",
					"note": "cashflow",
					"referenceId": "PA1fdc36b0"
				},
				"balance": 362375.0900000002
			},
			{
				"item": {
					"amount": 333.33,
					"type": "CashFlow",
					"created": "2027-05-01T05:00:00.000Z",
					"note": "cashflow",
					"referenceId": "PA3c6dc96d"
				},
				"balance": 362708.4200000002
			},
			{
				"item": {
					"amount": 3000,
					"type": "Income",
					"created": "2027-06-01T05:00:00.000Z",
					"note": "saved for month"
				},
				"balance": 365708.4200000002
			},
			{
				"item": {
					"amount": 541.67,
					"type": "CashFlow",
					"created": "2027-06-01T05:00:00.000Z",
					"note": "cashflow",
					"referenceId": "PA14a2c28a"
				},
				"balance": 366250.0900000002
			},
			{
				"item": {
					"amount": 333.33,
					"type": "CashFlow",
					"created": "2027-06-01T05:00:00.000Z",
					"note": "cashflow",
					"referenceId": "PA1fdc36b0"
				},
				"balance": 366583.4200000002
			},
			{
				"item": {
					"amount": 333.33,
					"type": "CashFlow",
					"created": "2027-06-01T05:00:00.000Z",
					"note": "cashflow",
					"referenceId": "PA3c6dc96d"
				},
				"balance": 366916.75000000023
			},
			{
				"item": {
					"amount": 3000,
					"type": "Income",
					"created": "2027-07-01T05:00:00.000Z",
					"note": "saved for month"
				},
				"balance": 369916.75000000023
			},
			{
				"item": {
					"amount": 541.67,
					"type": "CashFlow",
					"created": "2027-07-01T05:00:00.000Z",
					"note": "cashflow",
					"referenceId": "PA14a2c28a"
				},
				"balance": 370458.4200000002
			},
			{
				"item": {
					"amount": 333.33,
					"type": "CashFlow",
					"created": "2027-07-01T05:00:00.000Z",
					"note": "cashflow",
					"referenceId": "PA1fdc36b0"
				},
				"balance": 370791.75000000023
			},
			{
				"item": {
					"amount": 333.33,
					"type": "CashFlow",
					"created": "2027-07-01T05:00:00.000Z",
					"note": "cashflow",
					"referenceId": "PA3c6dc96d"
				},
				"balance": 371125.08000000025
			},
			{
				"item": {
					"amount": 3000,
					"type": "Income",
					"created": "2027-08-01T05:00:00.000Z",
					"note": "saved for month"
				},
				"balance": 374125.08000000025
			},
			{
				"item": {
					"amount": 541.67,
					"type": "CashFlow",
					"created": "2027-08-01T05:00:00.000Z",
					"note": "cashflow",
					"referenceId": "PA14a2c28a"
				},
				"balance": 374666.75000000023
			},
			{
				"item": {
					"amount": 333.33,
					"type": "CashFlow",
					"created": "2027-08-01T05:00:00.000Z",
					"note": "cashflow",
					"referenceId": "PA1fdc36b0"
				},
				"balance": 375000.08000000025
			},
			{
				"item": {
					"amount": 333.33,
					"type": "CashFlow",
					"created": "2027-08-01T05:00:00.000Z",
					"note": "cashflow",
					"referenceId": "PA3c6dc96d"
				},
				"balance": 375333.41000000027
			},
			{
				"item": {
					"amount": 3000,
					"type": "Income",
					"created": "2027-09-01T05:00:00.000Z",
					"note": "saved for month"
				},
				"balance": 378333.41000000027
			},
			{
				"item": {
					"amount": 541.67,
					"type": "CashFlow",
					"created": "2027-09-01T05:00:00.000Z",
					"note": "cashflow",
					"referenceId": "PA14a2c28a"
				},
				"balance": 378875.08000000025
			},
			{
				"item": {
					"amount": 333.33,
					"type": "CashFlow",
					"created": "2027-09-01T05:00:00.000Z",
					"note": "cashflow",
					"referenceId": "PA1fdc36b0"
				},
				"balance": 379208.41000000027
			},
			{
				"item": {
					"amount": 333.33,
					"type": "CashFlow",
					"created": "2027-09-01T05:00:00.000Z",
					"note": "cashflow",
					"referenceId": "PA3c6dc96d"
				},
				"balance": 379541.7400000003
			},
			{
				"item": {
					"amount": 3000,
					"type": "Income",
					"created": "2027-10-01T05:00:00.000Z",
					"note": "saved for month"
				},
				"balance": 382541.7400000003
			},
			{
				"item": {
					"amount": 541.67,
					"type": "CashFlow",
					"created": "2027-10-01T05:00:00.000Z",
					"note": "cashflow",
					"referenceId": "PA14a2c28a"
				},
				"balance": 383083.41000000027
			},
			{
				"item": {
					"amount": 333.33,
					"type": "CashFlow",
					"created": "2027-10-01T05:00:00.000Z",
					"note": "cashflow",
					"referenceId": "PA1fdc36b0"
				},
				"balance": 383416.7400000003
			},
			{
				"item": {
					"amount": 333.33,
					"type": "CashFlow",
					"created": "2027-10-01T05:00:00.000Z",
					"note": "cashflow",
					"referenceId": "PA3c6dc96d"
				},
				"balance": 383750.0700000003
			},
			{
				"item": {
					"amount": 3000,
					"type": "Income",
					"created": "2027-11-01T05:00:00.000Z",
					"note": "saved for month"
				},
				"balance": 386750.0700000003
			},
			{
				"item": {
					"amount": 541.67,
					"type": "CashFlow",
					"created": "2027-11-01T05:00:00.000Z",
					"note": "cashflow",
					"referenceId": "PA14a2c28a"
				},
				"balance": 387291.7400000003
			},
			{
				"item": {
					"amount": 333.33,
					"type": "CashFlow",
					"created": "2027-11-01T05:00:00.000Z",
					"note": "cashflow",
					"referenceId": "PA1fdc36b0"
				},
				"balance": 387625.0700000003
			},
			{
				"item": {
					"amount": 333.33,
					"type": "CashFlow",
					"created": "2027-11-01T05:00:00.000Z",
					"note": "cashflow",
					"referenceId": "PA3c6dc96d"
				},
				"balance": 387958.4000000003
			},
			{
				"item": {
					"amount": 3000,
					"type": "Income",
					"created": "2027-12-01T06:00:00.000Z",
					"note": "saved for month"
				},
				"balance": 390958.4000000003
			},
			{
				"item": {
					"amount": 541.67,
					"type": "CashFlow",
					"created": "2027-12-01T06:00:00.000Z",
					"note": "cashflow",
					"referenceId": "PA14a2c28a"
				},
				"balance": 391500.0700000003
			},
			{
				"item": {
					"amount": 333.33,
					"type": "CashFlow",
					"created": "2027-12-01T06:00:00.000Z",
					"note": "cashflow",
					"referenceId": "PA1fdc36b0"
				},
				"balance": 391833.4000000003
			},
			{
				"item": {
					"amount": 333.33,
					"type": "CashFlow",
					"created": "2027-12-01T06:00:00.000Z",
					"note": "cashflow",
					"referenceId": "PA3c6dc96d"
				},
				"balance": 392166.73000000033
			},
			{
				"item": {
					"amount": 3000,
					"type": "Income",
					"created": "2028-01-01T06:00:00.000Z",
					"note": "saved for month"
				},
				"balance": 395166.73000000033
			},
			{
				"item": {
					"amount": 541.67,
					"type": "CashFlow",
					"created": "2028-01-01T06:00:00.000Z",
					"note": "cashflow",
					"referenceId": "PA14a2c28a"
				},
				"balance": 395708.4000000003
			},
			{
				"item": {
					"amount": 333.33,
					"type": "CashFlow",
					"created": "2028-01-01T06:00:00.000Z",
					"note": "cashflow",
					"referenceId": "PA1fdc36b0"
				},
				"balance": 396041.73000000033
			},
			{
				"item": {
					"amount": 333.33,
					"type": "CashFlow",
					"created": "2028-01-01T06:00:00.000Z",
					"note": "cashflow",
					"referenceId": "PA3c6dc96d"
				},
				"balance": 396375.06000000035
			},
			{
				"item": {
					"amount": 3000,
					"type": "Income",
					"created": "2028-02-01T06:00:00.000Z",
					"note": "saved for month"
				},
				"balance": 399375.06000000035
			},
			{
				"item": {
					"amount": 541.67,
					"type": "CashFlow",
					"created": "2028-02-01T06:00:00.000Z",
					"note": "cashflow",
					"referenceId": "PA14a2c28a"
				},
				"balance": 399916.73000000033
			},
			{
				"item": {
					"amount": 333.33,
					"type": "CashFlow",
					"created": "2028-02-01T06:00:00.000Z",
					"note": "cashflow",
					"referenceId": "PA1fdc36b0"
				},
				"balance": 400250.06000000035
			},
			{
				"item": {
					"amount": 333.33,
					"type": "CashFlow",
					"created": "2028-02-01T06:00:00.000Z",
					"note": "cashflow",
					"referenceId": "PA3c6dc96d"
				},
				"balance": 400583.39000000036
			},
			{
				"item": {
					"amount": 3000,
					"type": "Income",
					"created": "2028-03-01T06:00:00.000Z",
					"note": "saved for month"
				},
				"balance": 403583.39000000036
			},
			{
				"item": {
					"amount": 541.67,
					"type": "CashFlow",
					"created": "2028-03-01T06:00:00.000Z",
					"note": "cashflow",
					"referenceId": "PA14a2c28a"
				},
				"balance": 404125.06000000035
			},
			{
				"item": {
					"amount": 333.33,
					"type": "CashFlow",
					"created": "2028-03-01T06:00:00.000Z",
					"note": "cashflow",
					"referenceId": "PA1fdc36b0"
				},
				"balance": 404458.39000000036
			},
			{
				"item": {
					"amount": 333.33,
					"type": "CashFlow",
					"created": "2028-03-01T06:00:00.000Z",
					"note": "cashflow",
					"referenceId": "PA3c6dc96d"
				},
				"balance": 404791.7200000004
			},
			{
				"item": {
					"amount": 3000,
					"type": "Income",
					"created": "2028-04-01T05:00:00.000Z",
					"note": "saved for month"
				},
				"balance": 407791.7200000004
			},
			{
				"item": {
					"amount": 541.67,
					"type": "CashFlow",
					"created": "2028-04-01T05:00:00.000Z",
					"note": "cashflow",
					"referenceId": "PA14a2c28a"
				},
				"balance": 408333.39000000036
			},
			{
				"item": {
					"amount": 333.33,
					"type": "CashFlow",
					"created": "2028-04-01T05:00:00.000Z",
					"note": "cashflow",
					"referenceId": "PA1fdc36b0"
				},
				"balance": 408666.7200000004
			},
			{
				"item": {
					"amount": 333.33,
					"type": "CashFlow",
					"created": "2028-04-01T05:00:00.000Z",
					"note": "cashflow",
					"referenceId": "PA3c6dc96d"
				},
				"balance": 409000.0500000004
			},
			{
				"item": {
					"amount": 3000,
					"type": "Income",
					"created": "2028-05-01T05:00:00.000Z",
					"note": "saved for month"
				},
				"balance": 412000.0500000004
			},
			{
				"item": {
					"amount": 541.67,
					"type": "CashFlow",
					"created": "2028-05-01T05:00:00.000Z",
					"note": "cashflow",
					"referenceId": "PA14a2c28a"
				},
				"balance": 412541.7200000004
			},
			{
				"item": {
					"amount": 333.33,
					"type": "CashFlow",
					"created": "2028-05-01T05:00:00.000Z",
					"note": "cashflow",
					"referenceId": "PA1fdc36b0"
				},
				"balance": 412875.0500000004
			},
			{
				"item": {
					"amount": 333.33,
					"type": "CashFlow",
					"created": "2028-05-01T05:00:00.000Z",
					"note": "cashflow",
					"referenceId": "PA3c6dc96d"
				},
				"balance": 413208.3800000004
			},
			{
				"item": {
					"amount": 3000,
					"type": "Income",
					"created": "2028-06-01T05:00:00.000Z",
					"note": "saved for month"
				},
				"balance": 416208.3800000004
			},
			{
				"item": {
					"amount": 541.67,
					"type": "CashFlow",
					"created": "2028-06-01T05:00:00.000Z",
					"note": "cashflow",
					"referenceId": "PA14a2c28a"
				},
				"balance": 416750.0500000004
			},
			{
				"item": {
					"amount": 333.33,
					"type": "CashFlow",
					"created": "2028-06-01T05:00:00.000Z",
					"note": "cashflow",
					"referenceId": "PA1fdc36b0"
				},
				"balance": 417083.3800000004
			},
			{
				"item": {
					"amount": 333.33,
					"type": "CashFlow",
					"created": "2028-06-01T05:00:00.000Z",
					"note": "cashflow",
					"referenceId": "PA3c6dc96d"
				},
				"balance": 417416.7100000004
			},
			{
				"item": {
					"amount": 83000,
					"type": "Equity Capture",
					"created": "2028-06-01T05:00:00.000Z",
					"note": "sold",
					"referenceId": "PA3c6dc96d"
				},
				"balance": 500416.7100000004
			},
			{
				"item": {
					"amount": 3000,
					"type": "Income",
					"created": "2028-07-01T05:00:00.000Z",
					"note": "saved for month"
				},
				"balance": 503416.7100000004
			},
			{
				"item": {
					"amount": 541.67,
					"type": "CashFlow",
					"created": "2028-07-01T05:00:00.000Z",
					"note": "cashflow",
					"referenceId": "PA14a2c28a"
				},
				"balance": 503958.3800000004
			},
			{
				"item": {
					"amount": 333.33,
					"type": "CashFlow",
					"created": "2028-07-01T05:00:00.000Z",
					"note": "cashflow",
					"referenceId": "PA1fdc36b0"
				},
				"balance": 504291.7100000004
			},
			{
				"item": {
					"amount": 90000,
					"type": "Equity Capture",
					"created": "2028-07-01T05:00:00.000Z",
					"note": "sold",
					"referenceId": "PA14a2c28a"
				},
				"balance": 594291.7100000004
			},
			{
				"item": {
					"amount": 3000,
					"type": "Income",
					"created": "2028-08-01T05:00:00.000Z",
					"note": "saved for month"
				},
				"balance": 597291.7100000004
			},
			{
				"item": {
					"amount": 333.33,
					"type": "CashFlow",
					"created": "2028-08-01T05:00:00.000Z",
					"note": "cashflow",
					"referenceId": "PA1fdc36b0"
				},
				"balance": 597625.0400000004
			},
			{
				"item": {
					"amount": 3000,
					"type": "Income",
					"created": "2028-09-01T05:00:00.000Z",
					"note": "saved for month"
				},
				"balance": 600625.0400000004
			},
			{
				"item": {
					"amount": 333.33,
					"type": "CashFlow",
					"created": "2028-09-01T05:00:00.000Z",
					"note": "cashflow",
					"referenceId": "PA1fdc36b0"
				},
				"balance": 600958.3700000003
			},
			{
				"item": {
					"amount": 3000,
					"type": "Income",
					"created": "2028-10-01T05:00:00.000Z",
					"note": "saved for month"
				},
				"balance": 603958.3700000003
			},
			{
				"item": {
					"amount": 333.33,
					"type": "CashFlow",
					"created": "2028-10-01T05:00:00.000Z",
					"note": "cashflow",
					"referenceId": "PA1fdc36b0"
				},
				"balance": 604291.7000000003
			},
			{
				"item": {
					"amount": 3000,
					"type": "Income",
					"created": "2028-11-01T05:00:00.000Z",
					"note": "saved for month"
				},
				"balance": 607291.7000000003
			},
			{
				"item": {
					"amount": 333.33,
					"type": "CashFlow",
					"created": "2028-11-01T05:00:00.000Z",
					"note": "cashflow",
					"referenceId": "PA1fdc36b0"
				},
				"balance": 607625.0300000003
			},
			{
				"item": {
					"amount": 3000,
					"type": "Income",
					"created": "2028-12-01T06:00:00.000Z",
					"note": "saved for month"
				},
				"balance": 610625.0300000003
			},
			{
				"item": {
					"amount": 333.33,
					"type": "CashFlow",
					"created": "2028-12-01T06:00:00.000Z",
					"note": "cashflow",
					"referenceId": "PA1fdc36b0"
				},
				"balance": 610958.3600000002
			},
			{
				"item": {
					"amount": 3000,
					"type": "Income",
					"created": "2029-01-01T06:00:00.000Z",
					"note": "saved for month"
				},
				"balance": 613958.3600000002
			},
			{
				"item": {
					"amount": 333.33,
					"type": "CashFlow",
					"created": "2029-01-01T06:00:00.000Z",
					"note": "cashflow",
					"referenceId": "PA1fdc36b0"
				},
				"balance": 614291.6900000002
			},
			{
				"item": {
					"amount": 3000,
					"type": "Income",
					"created": "2029-02-01T06:00:00.000Z",
					"note": "saved for month"
				},
				"balance": 617291.6900000002
			},
			{
				"item": {
					"amount": 333.33,
					"type": "CashFlow",
					"created": "2029-02-01T06:00:00.000Z",
					"note": "cashflow",
					"referenceId": "PA1fdc36b0"
				},
				"balance": 617625.0200000001
			},
			{
				"item": {
					"amount": 3000,
					"type": "Income",
					"created": "2029-03-01T06:00:00.000Z",
					"note": "saved for month"
				},
				"balance": 620625.0200000001
			},
			{
				"item": {
					"amount": 333.33,
					"type": "CashFlow",
					"created": "2029-03-01T06:00:00.000Z",
					"note": "cashflow",
					"referenceId": "PA1fdc36b0"
				},
				"balance": 620958.3500000001
			},
			{
				"item": {
					"amount": 3000,
					"type": "Income",
					"created": "2029-04-01T05:00:00.000Z",
					"note": "saved for month"
				},
				"balance": 623958.3500000001
			},
			{
				"item": {
					"amount": 333.33,
					"type": "CashFlow",
					"created": "2029-04-01T05:00:00.000Z",
					"note": "cashflow",
					"referenceId": "PA1fdc36b0"
				},
				"balance": 624291.68
			},
			{
				"item": {
					"amount": 3000,
					"type": "Income",
					"created": "2029-05-01T05:00:00.000Z",
					"note": "saved for month"
				},
				"balance": 627291.68
			},
			{
				"item": {
					"amount": 333.33,
					"type": "CashFlow",
					"created": "2029-05-01T05:00:00.000Z",
					"note": "cashflow",
					"referenceId": "PA1fdc36b0"
				},
				"balance": 627625.01
			},
			{
				"item": {
					"amount": 3000,
					"type": "Income",
					"created": "2029-06-01T05:00:00.000Z",
					"note": "saved for month"
				},
				"balance": 630625.01
			},
			{
				"item": {
					"amount": 333.33,
					"type": "CashFlow",
					"created": "2029-06-01T05:00:00.000Z",
					"note": "cashflow",
					"referenceId": "PA1fdc36b0"
				},
				"balance": 630958.34
			},
			{
				"item": {
					"amount": 3000,
					"type": "Income",
					"created": "2029-07-01T05:00:00.000Z",
					"note": "saved for month"
				},
				"balance": 633958.34
			},
			{
				"item": {
					"amount": 333.33,
					"type": "CashFlow",
					"created": "2029-07-01T05:00:00.000Z",
					"note": "cashflow",
					"referenceId": "PA1fdc36b0"
				},
				"balance": 634291.6699999999
			},
			{
				"item": {
					"amount": 3000,
					"type": "Income",
					"created": "2029-08-01T05:00:00.000Z",
					"note": "saved for month"
				},
				"balance": 637291.6699999999
			},
			{
				"item": {
					"amount": 333.33,
					"type": "CashFlow",
					"created": "2029-08-01T05:00:00.000Z",
					"note": "cashflow",
					"referenceId": "PA1fdc36b0"
				},
				"balance": 637624.9999999999
			},
			{
				"item": {
					"amount": 91500,
					"type": "Equity Capture",
					"created": "2029-08-01T05:00:00.000Z",
					"note": "sold",
					"referenceId": "PA1fdc36b0"
				},
				"balance": 729124.9999999999
			},
			{
				"item": {
					"amount": 3000,
					"type": "Income",
					"created": "2029-09-01T05:00:00.000Z",
					"note": "saved for month"
				},
				"balance": 732124.9999999999
			},
			{
				"item": {
					"amount": 3000,
					"type": "Income",
					"created": "2029-10-01T05:00:00.000Z",
					"note": "saved for month"
				},
				"balance": 735124.9999999999
			},
			{
				"item": {
					"amount": 3000,
					"type": "Income",
					"created": "2029-11-01T05:00:00.000Z",
					"note": "saved for month"
				},
				"balance": 738124.9999999999
			},
			{
				"item": {
					"amount": 3000,
					"type": "Income",
					"created": "2029-12-01T06:00:00.000Z",
					"note": "saved for month"
				},
				"balance": 741124.9999999999
			},
			{
				"item": {
					"amount": 3000,
					"type": "Income",
					"created": "2030-01-01T06:00:00.000Z",
					"note": "saved for month"
				},
				"balance": 744124.9999999999
			},
			{
				"item": {
					"amount": 3000,
					"type": "Income",
					"created": "2030-02-01T06:00:00.000Z",
					"note": "saved for month"
				},
				"balance": 747124.9999999999
			},
			{
				"item": {
					"amount": 3000,
					"type": "Income",
					"created": "2030-03-01T06:00:00.000Z",
					"note": "saved for month"
				},
				"balance": 750124.9999999999
			},
			{
				"item": {
					"amount": 3000,
					"type": "Income",
					"created": "2030-04-01T05:00:00.000Z",
					"note": "saved for month"
				},
				"balance": 753124.9999999999
			},
			{
				"item": {
					"amount": 3000,
					"type": "Income",
					"created": "2030-05-01T05:00:00.000Z",
					"note": "saved for month"
				},
				"balance": 756124.9999999999
			}
		]
	},
	"date": "2030-06-01T05:00:00.000Z"
}